ISO-10303-21;
HEADER;
FILE_DESCRIPTION (( 'STEP AP203' ),
    '1' );
FILE_NAME ('ARG Wing Reinforcement Grown.STEP',
    '2014-04-03T23:40:26',
    ( '' ),
    ( '' ),
    'SwSTEP 2.0',
    'SolidWorks 2012',
    '' );
FILE_SCHEMA (( 'CONFIG_CONTROL_DESIGN' ));
ENDSEC;

DATA;
#1 = EDGE_LOOP ( 'NONE', ( #660, #661, #662, #663, #664, #665, #666, #667, #668, #669, #670, #671, #672, #673, #674, #675 ) ) ;
#2 = EDGE_LOOP ( 'NONE', ( #628, #629, #630, #631 ) ) ;
#3 = EDGE_LOOP ( 'NONE', ( #646, #647, #648, #649, #650, #651, #652, #653, #654, #655 ) ) ;
#4 = EDGE_LOOP ( 'NONE', ( #211, #209, #218, #162, #171, #1109, #1020, #611, #612, #161 ) ) ;
#5 = EDGE_LOOP ( 'NONE', ( #1122, #1121, #1120, #1036 ) ) ;
#6 = EDGE_LOOP ( 'NONE', ( #716, #717, #718, #719, #720, #721, #722, #723, #724, #725, #726, #727, #728, #729, #730, #731 ) ) ;
#7 = EDGE_LOOP ( 'NONE', ( #1113, #1114, #1115, #1112 ) ) ;
#8 = EDGE_LOOP ( 'NONE', ( #620, #621, #622, #623 ) ) ;
#9 = EDGE_LOOP ( 'NONE', ( #1118, #1300, #1116, #1117 ) ) ;
#10 = EDGE_LOOP ( 'NONE', ( #676, #677, #678, #679, #680, #681, #682, #683, #684, #685, #686, #687, #688, #689, #690, #691 ) ) ;
#11 = EDGE_LOOP ( 'NONE', ( #744, #745, #746, #747 ) ) ;
#12 = EDGE_LOOP ( 'NONE', ( #632, #633, #634, #635, #636, #637, #638, #639, #640, #641 ) ) ;
#13 = EDGE_LOOP ( 'NONE', ( #1129, #1110, #1111, #1136 ) ) ;
#14 = EDGE_LOOP ( 'NONE', ( #616, #617, #618, #619 ) ) ;
#15 = EDGE_LOOP ( 'NONE', ( #1119, #1014, #1123, #1037 ) ) ;
#16 = EDGE_LOOP ( 'NONE', ( #624, #625, #626, #627 ) ) ;
#17 = EDGE_LOOP ( 'NONE', ( #205, #212, #206, #215 ) ) ;
#18 = EDGE_LOOP ( 'NONE', ( #656, #657, #658, #659 ) ) ;
#19 = EDGE_LOOP ( 'NONE', ( #1013, #1019, #1132, #1130, #1124, #1135, #1127, #1125, #1133, #1131 ) ) ;
#20 = EDGE_LOOP ( 'NONE', ( #1302, #1306, #1303, #1128 ) ) ;
#21 = DIRECTION ( 'NONE',  ( -1.000000000000000000, 0.0000000000000000000, 0.0000000000000000000 ) ) ;
#22 = CARTESIAN_POINT ( 'NONE',  ( -0.03500000000000000300, 0.03500000000000000300, 0.07812500000000013900 ) ) ;
#23 = CARTESIAN_POINT ( 'NONE',  ( -0.1350000000000000100, 0.07612900391531132700, -0.07812500000000006900 ) ) ;
#24 = CARTESIAN_POINT ( 'NONE',  ( -6.956303016692909000E-018, -0.03500000000000000300, 0.07812500000000013900 ) ) ;
#25 = CARTESIAN_POINT ( 'NONE',  ( 0.06499999999999998800, -0.03059449545060645100, 1.744313236870815200 ) ) ;
#26 = CARTESIAN_POINT ( 'NONE',  ( -0.4000000000000000200, 0.04687499999999984000, -0.8750000000000000000 ) ) ;
#27 = CARTESIAN_POINT ( 'NONE',  ( -0.03500000000000000300, -0.03500000000000000300, 0.07812500000000013900 ) ) ;
#28 = CARTESIAN_POINT ( 'NONE',  ( -0.03500000000000000300, -0.04687499999999989600, 1.753062103223407500 ) ) ;
#29 = CARTESIAN_POINT ( 'NONE',  ( -0.2750000000000000200, -0.04687500000000001400, -1.000000000000000000 ) ) ;
#30 = CARTESIAN_POINT ( 'NONE',  ( -0.2641055321565427000, -0.04687500000000001400, 1.773106240038179000 ) ) ;
#31 = CARTESIAN_POINT ( 'NONE',  ( -0.03500000000000000300, -0.04687499999999989600, 0.07812500000000013900 ) ) ;
#32 = CARTESIAN_POINT ( 'NONE',  ( -0.4000000000000000200, -0.04687500000000008300, 1.648581902776710600 ) ) ;
#33 = CARTESIAN_POINT ( 'NONE',  ( -0.1349999999999999800, -0.04687499999999991700, 0.07812500000000000000 ) ) ;
#34 = CARTESIAN_POINT ( 'NONE',  ( -0.1349999999999999800, -0.07612900391531031400, 0.07812500000000006900 ) ) ;
#35 = CARTESIAN_POINT ( 'NONE',  ( -0.2750000000000000800, -0.07124009618646712200, -1.000000000000000000 ) ) ;
#36 = CARTESIAN_POINT ( 'NONE',  ( -0.1349999999999999800, -0.07612900391531031400, -0.07812500000000006900 ) ) ;
#37 = CARTESIAN_POINT ( 'NONE',  ( -0.4000000000000000200, -0.04687500000000008300, -0.8750000000000000000 ) ) ;
#38 = CARTESIAN_POINT ( 'NONE',  ( -0.2641055321565427000, -0.07162053938676364600, 1.773106240038179000 ) ) ;
#39 = CARTESIAN_POINT ( 'NONE',  ( -0.04473984803250681500, -0.07928095787645629600, 1.753914229510717300 ) ) ;
#40 = CARTESIAN_POINT ( 'NONE',  ( 0.01682323793166386900, 0.06278517870878941300, 1.748528157397180300 ) ) ;
#41 = CARTESIAN_POINT ( 'NONE',  ( -0.1349999999999999800, -0.04687499999999991700, -0.07812500000000000000 ) ) ;
#42 = CARTESIAN_POINT ( 'NONE',  ( 0.01682323793166388300, 0.06278517870878941300, 0.07812500000000013900 ) ) ;
#43 = CARTESIAN_POINT ( 'NONE',  ( -0.4000000000000000200, -0.06687500000000000400, 1.648581902776710600 ) ) ;
#44 = CARTESIAN_POINT ( 'NONE',  ( -0.04473984803250685700, 0.07928095787645769700, -1.000000000000000000 ) ) ;
#45 = CARTESIAN_POINT ( 'NONE',  ( -0.03500000000000003800, 0.04687499999999987500, -1.000000000000000000 ) ) ;
#46 = CARTESIAN_POINT ( 'NONE',  ( -0.4000000000000000200, -0.06687500000000000400, -0.8750000000000000000 ) ) ;
#47 = CARTESIAN_POINT ( 'NONE',  ( -0.03500000000000000300, 0.03500000000000000300, -1.000000000000000000 ) ) ;
#48 = CARTESIAN_POINT ( 'NONE',  ( -0.04473984803250682200, -0.07928095787645629600, 0.07812500000000000000 ) ) ;
#49 = CARTESIAN_POINT ( 'NONE',  ( -0.04473984803250685700, 0.07928095787645769700, -0.07812500000000000000 ) ) ;
#50 = CARTESIAN_POINT ( 'NONE',  ( -0.03500000000000003800, 0.04687499999999987500, -0.07812500000000013900 ) ) ;
#51 = CARTESIAN_POINT ( 'NONE',  ( -6.429395695523604000E-018, -0.03500000000000000300, -1.000000000000000000 ) ) ;
#52 = CARTESIAN_POINT ( 'NONE',  ( -0.03500000000000000300, -0.04687499999999989600, -1.000000000000000000 ) ) ;
#53 = CARTESIAN_POINT ( 'NONE',  ( -0.03500000000000000300, -0.03500000000000000300, -1.000000000000000000 ) ) ;
#54 = CARTESIAN_POINT ( 'NONE',  ( -6.956303016692909000E-018, -0.03500000000000000300, -0.07812500000000013900 ) ) ;
#55 = CARTESIAN_POINT ( 'NONE',  ( -0.03500000000000000300, 0.03500000000000000300, -0.07812500000000013900 ) ) ;
#56 = CARTESIAN_POINT ( 'NONE',  ( 0.01682323793166388300, 0.06278517870878941300, -0.07812500000000013900 ) ) ;
#57 = CARTESIAN_POINT ( 'NONE',  ( -0.03500000000000000300, -0.03500000000000000300, -0.07812500000000013900 ) ) ;
#58 = CARTESIAN_POINT ( 'NONE',  ( -0.04473984803250682200, -0.07928095787645629600, -1.000000000000000000 ) ) ;
#59 = CARTESIAN_POINT ( 'NONE',  ( 0.01682323793166387900, -0.06278517870878942700, -0.07812500000000013900 ) ) ;
#60 = CARTESIAN_POINT ( 'NONE',  ( -0.03500000000000000300, -0.04687499999999989600, -0.07812500000000013900 ) ) ;
#61 = CARTESIAN_POINT ( 'NONE',  ( 0.06499999999999998800, 0.0000000000000000000, -0.07812500000000013900 ) ) ;
#62 = CARTESIAN_POINT ( 'NONE',  ( 0.01682323793166389000, -0.06278517870878942700, -1.000000000000000000 ) ) ;
#63 = CARTESIAN_POINT ( 'NONE',  ( 0.03500000000000000300, 0.0000000000000000000, -0.07812500000000013900 ) ) ;
#64 = CARTESIAN_POINT ( 'NONE',  ( 4.286263797015736000E-018, 0.03500000000000000300, -0.07812500000000013900 ) ) ;
#65 = CARTESIAN_POINT ( 'NONE',  ( 4.286263797015736000E-018, 0.03500000000000000300, -1.000000000000000000 ) ) ;
#66 = CARTESIAN_POINT ( 'NONE',  ( 0.06499999999999998800, 0.0000000000000000000, 1.744313236870815200 ) ) ;
#67 = CARTESIAN_POINT ( 'NONE',  ( 0.01682323793166387600, -0.06278517870878942700, 1.748528157397180500 ) ) ;
#68 = CARTESIAN_POINT ( 'NONE',  ( 4.286263797015736000E-018, 0.03500000000000000300, 0.07812500000000013900 ) ) ;
#69 = CARTESIAN_POINT ( 'NONE',  ( 0.01682323793166388300, 0.06278517870878941300, -1.000000000000000000 ) ) ;
#70 = CARTESIAN_POINT ( 'NONE',  ( 0.06499999999999998800, 0.0000000000000000000, 0.07812500000000013900 ) ) ;
#71 = CARTESIAN_POINT ( 'NONE',  ( 0.03500000000000000300, 0.0000000000000000000, 0.07812500000000013900 ) ) ;
#72 = CARTESIAN_POINT ( 'NONE',  ( 0.03500000000000000300, 0.0000000000000000000, -1.000000000000000000 ) ) ;
#73 = CARTESIAN_POINT ( 'NONE',  ( -0.04473984803250682200, -0.07928095787645629600, -0.07812500000000000000 ) ) ;
#74 = DIRECTION ( 'NONE',  ( -0.0000000000000000000, 1.000000000000000000, -0.0000000000000000000 ) ) ;
#75 = DIRECTION ( 'NONE',  ( 0.0000000000000000000, 0.0000000000000000000, 1.000000000000000000 ) ) ;
#76 = CARTESIAN_POINT ( 'NONE',  ( 4.286263797015736000E-018, 0.03500000000000000300, 1.750000000000000200 ) ) ;
#77 = CARTESIAN_POINT ( 'NONE',  ( -0.04473984803250685700, 0.07928095787645769700, -1.491291035056853300 ) ) ;
#78 = DIRECTION ( 'NONE',  ( 0.9993908270190959800, 0.03489949670249420400, 0.0000000000000000000 ) ) ;
#79 = CARTESIAN_POINT ( 'NONE',  ( -0.04473984803250685700, 0.07928095787645769700, -1.000000000000000000 ) ) ;
#80 = CARTESIAN_POINT ( 'NONE',  ( -0.4000000000000000200, 0.06687500000000000400, -0.8750000000000000000 ) ) ;
#81 = CARTESIAN_POINT ( 'NONE',  ( -0.4000000000000000200, 0.06687500000000000400, 1.648581902776710600 ) ) ;
#82 = CARTESIAN_POINT ( 'NONE',  ( -0.2750000000000001300, 0.07124009618646762200, -1.000000000000000000 ) ) ;
#83 = CARTESIAN_POINT ( 'NONE',  ( 0.06499999999999998800, 0.0000000000000000000, -1.000000000000000000 ) ) ;
#84 = CARTESIAN_POINT ( 'NONE',  ( -0.2641055321565428100, 0.07162053938676418700, 1.773106240038179200 ) ) ;
#85 = CARTESIAN_POINT ( 'NONE',  ( -0.4000000000000000200, 0.06687500000000000400, -0.9482233047033630200 ) ) ;
#86 = CARTESIAN_POINT ( 'NONE',  ( -0.3482233047033631000, 0.06868308204149795000, -1.000000000000000200 ) ) ;
#87 = CARTESIAN_POINT ( 'NONE',  ( -0.4000000000000000200, 0.06687500000000000400, 1.648581902776710600 ) ) ;
#88 = DIRECTION ( 'NONE',  ( 1.000000000000000000, 0.0000000000000000000, 0.0000000000000000000 ) ) ;
#89 = DIRECTION ( 'NONE',  ( -0.0000000000000000000, 0.0000000000000000000, 1.000000000000000000 ) ) ;
#90 = CARTESIAN_POINT ( 'NONE',  ( 0.0000000000000000000, 0.0000000000000000000, 0.07812500000000013900 ) ) ;
#91 = CARTESIAN_POINT ( 'NONE',  ( -0.3422015992634545600, 0.06889336462911217800, 1.779938760575993300 ) ) ;
#92 = CARTESIAN_POINT ( 'NONE',  ( -0.4000000000000000200, 0.06687500000000000400, 1.726976284172745600 ) ) ;
#93 = DIRECTION ( 'NONE',  ( 0.0000000000000000000, 0.0000000000000000000, 1.000000000000000000 ) ) ;
#94 = CARTESIAN_POINT ( 'NONE',  ( -0.08835692981493176200, 0.07775781581763122100, 1.757730229702762400 ) ) ;
#95 = CARTESIAN_POINT ( 'NONE',  ( 0.03500000000000000300, 0.0000000000000000000, 1.746937896776592700 ) ) ;
#96 = CARTESIAN_POINT ( 'NONE',  ( 0.03500000000000000300, 0.02050252531694167500, 1.746937896776592900 ) ) ;
#97 = CARTESIAN_POINT ( 'NONE',  ( 4.286263797015736000E-018, 0.03500000000000000300, -1.491291035056853300 ) ) ;
#98 = DIRECTION ( 'NONE',  ( 1.000000000000000000, 0.0000000000000000000, 0.0000000000000000000 ) ) ;
#99 = DIRECTION ( 'NONE',  ( 0.0000000000000000000, -0.0000000000000000000, -1.000000000000000000 ) ) ;
#100 = CARTESIAN_POINT ( 'NONE',  ( 0.0000000000000000000, 0.0000000000000000000, 0.07812500000000013900 ) ) ;
#101 = CARTESIAN_POINT ( 'NONE',  ( 0.02050252531694166400, 0.03500000000000000300, 1.748206261461114700 ) ) ;
#102 = CARTESIAN_POINT ( 'NONE',  ( 4.286263797015736000E-018, 0.03500000000000000300, 1.750000000000000200 ) ) ;
#103 = DIRECTION ( 'NONE',  ( -0.9955924487632793500, -0.03476685441098038100, 0.08710305275880148000 ) ) ;
#104 = DIRECTION ( 'NONE',  ( 0.0000000000000000000, 0.0000000000000000000, 1.000000000000000000 ) ) ;
#105 = DIRECTION ( 'NONE',  ( 0.0000000000000000000, 0.0000000000000000000, 1.000000000000000000 ) ) ;
#106 = CARTESIAN_POINT ( 'NONE',  ( 0.06499999999999998800, 0.0000000000000000000, -1.491291035056853300 ) ) ;
#107 = DIRECTION ( 'NONE',  ( -0.0000000000000000000, -1.000000000000000000, -0.0000000000000000000 ) ) ;
#108 = DIRECTION ( 'NONE',  ( 9.355643813918708300E-017, -1.000000000000000000, 0.0000000000000000000 ) ) ;
#109 = CARTESIAN_POINT ( 'NONE',  ( -0.2750000000000000200, 0.04687499999999984700, 1.648581902776710600 ) ) ;
#110 = DIRECTION ( 'NONE',  ( 1.000000000000000000, 6.829619984160658000E-017, 0.0000000000000000000 ) ) ;
#111 = CARTESIAN_POINT ( 'NONE',  ( -0.4000000000000000200, 0.04687499999999984000, -0.8750000000000000000 ) ) ;
#112 = CARTESIAN_POINT ( 'NONE',  ( 0.03500000000000000300, 0.0000000000000000000, -1.491291035056853300 ) ) ;
#113 = CARTESIAN_POINT ( 'NONE',  ( -0.4000000000000000200, 0.04687499999999984000, 0.07812500000000013900 ) ) ;
#114 = DIRECTION ( 'NONE',  ( -1.000000000000000000, -9.355643813918708300E-017, 0.0000000000000000000 ) ) ;
#115 = DIRECTION ( 'NONE',  ( 1.000000000000000000, 1.092739197465705300E-016, 0.0000000000000000000 ) ) ;
#116 = DIRECTION ( 'NONE',  ( 9.355643813918708300E-017, -1.000000000000000000, 0.0000000000000000000 ) ) ;
#117 = CARTESIAN_POINT ( 'NONE',  ( -0.1349999999999999800, 0.04687499999999986100, 0.0000000000000000000 ) ) ;
#118 = DIRECTION ( 'NONE',  ( 0.0000000000000000000, 0.0000000000000000000, 1.000000000000000000 ) ) ;
#119 = CARTESIAN_POINT ( 'NONE',  ( -0.4000000000000000200, 0.06687500000000000400, -1.491291035056853300 ) ) ;
#120 = DIRECTION ( 'NONE',  ( 0.0000000000000000000, 1.000000000000000000, 0.0000000000000000000 ) ) ;
#121 = CARTESIAN_POINT ( 'NONE',  ( -0.2750000000000000200, -0.04687500000000008300, -1.000000000000000000 ) ) ;
#122 = CARTESIAN_POINT ( 'NONE',  ( -0.4409712670559228200, 0.04687499999999984000, 1.788579986808056100 ) ) ;
#123 = DIRECTION ( 'NONE',  ( -0.9624950978846035200, 0.2578997841971086800, 0.08420740976417755200 ) ) ;
#124 = CARTESIAN_POINT ( 'NONE',  ( -0.1350000000000000100, 0.07612900391531132700, 0.07812500000000006900 ) ) ;
#125 = CARTESIAN_POINT ( 'NONE',  ( -0.08550513183478385100, 0.09020398275050396700, 1.757480729708833300 ) ) ;
#126 = CARTESIAN_POINT ( 'NONE',  ( -0.1350000000000000100, 0.07612900391531132700, -0.07812500000000006900 ) ) ;
#127 = DIRECTION ( 'NONE',  ( 0.9961946980917454300, 9.320042764660654500E-017, -0.08715574274765836000 ) ) ;
#128 = DIRECTION ( 'NONE',  ( 0.9659258262890646500, -0.2588190451025345600, 0.0000000000000000000 ) ) ;
#129 = CARTESIAN_POINT ( 'NONE',  ( -0.04473984803250685700, 0.07928095787645769700, 0.07812500000000013900 ) ) ;
#130 = DIRECTION ( 'NONE',  ( 0.9993908270190959800, 0.03489949670249420400, 0.0000000000000000000 ) ) ;
#131 = CARTESIAN_POINT ( 'NONE',  ( -0.04473984803250685700, 0.07928095787645769700, 0.07812500000000013900 ) ) ;
#132 = DIRECTION ( 'NONE',  ( -0.9993908270190959800, -0.03489949670249420400, 0.0000000000000000000 ) ) ;
#133 = CARTESIAN_POINT ( 'NONE',  ( -0.04473984803250685700, 0.07928095787645769700, -0.07812500000000013900 ) ) ;
#134 = DIRECTION ( 'NONE',  ( 0.0000000000000000000, 1.000000000000000000, 0.0000000000000000000 ) ) ;
#135 = CARTESIAN_POINT ( 'NONE',  ( -0.2750000000000000200, 0.06687500000000000400, -1.000000000000000000 ) ) ;
#136 = DIRECTION ( 'NONE',  ( 0.0000000000000000000, -1.000000000000000000, 0.0000000000000000000 ) ) ;
#137 = CARTESIAN_POINT ( 'NONE',  ( -0.2641055321565428100, 0.0000000000000000000, 1.773106240038179000 ) ) ;
#138 = DIRECTION ( 'NONE',  ( -0.0000000000000000000, 1.000000000000000000, -0.0000000000000000000 ) ) ;
#139 = CARTESIAN_POINT ( 'NONE',  ( -0.1349999999999999800, -0.07928095787645629600, -0.07812500000000000000 ) ) ;
#140 = DIRECTION ( 'NONE',  ( 1.000000000000000000, 0.0000000000000000000, 0.0000000000000000000 ) ) ;
#141 = DIRECTION ( 'NONE',  ( 0.0000000000000000000, 0.0000000000000000000, 1.000000000000000000 ) ) ;
#142 = CARTESIAN_POINT ( 'NONE',  ( 0.0000000000000000000, 0.0000000000000000000, -1.000000000000000000 ) ) ;
#143 = CARTESIAN_POINT ( 'NONE',  ( -0.2912500000000000100, 0.07067263368222681500, 0.07812499999999997200 ) ) ;
#144 = CARTESIAN_POINT ( 'NONE',  ( -0.2912500000000000100, 0.07067263368222681500, -0.07812499999999998600 ) ) ;
#145 = CARTESIAN_POINT ( 'NONE',  ( -0.2641055321565428100, 0.0000000000000000000, 1.773106240038179000 ) ) ;
#146 = DIRECTION ( 'NONE',  ( 0.0000000000000000000, 0.0000000000000000000, 1.000000000000000000 ) ) ;
#147 = DIRECTION ( 'NONE',  ( 0.0000000000000000000, 0.0000000000000000000, 1.000000000000000000 ) ) ;
#148 = DIRECTION ( 'NONE',  ( 0.0000000000000000000, -1.000000000000000000, 0.0000000000000000000 ) ) ;
#149 = DIRECTION ( 'NONE',  ( 0.0000000000000000000, 0.0000000000000000000, -1.000000000000000000 ) ) ;
#150 = CARTESIAN_POINT ( 'NONE',  ( 0.01682323793166388600, -0.06278517870878942700, -1.491291035056853300 ) ) ;
#151 = CARTESIAN_POINT ( 'NONE',  ( 0.0000000000000000000, 0.0000000000000000000, -0.07812500000000013900 ) ) ;
#152 = CARTESIAN_POINT ( 'NONE',  ( 0.06499999999999998800, 0.0000000000000000000, 1.744313236870815200 ) ) ;
#153 = CARTESIAN_POINT ( 'NONE',  ( -7.483210337862212500E-018, -0.03500000000000000300, 1.750000000000000200 ) ) ;
#154 = CARTESIAN_POINT ( 'NONE',  ( -0.03500000000000001000, 0.03500000000000000300, 1.753062103223407700 ) ) ;
#155 = CARTESIAN_POINT ( 'NONE',  ( -0.03500000000000000300, -0.03500000000000000300, 1.753062103223407500 ) ) ;
#156 = CARTESIAN_POINT ( 'NONE',  ( -0.03500000000000003800, 0.04687499999999987500, 0.07812500000000013900 ) ) ;
#157 = EDGE_LOOP ( 'NONE', ( #642, #643, #644, #645 ) ) ;
#158 = EDGE_LOOP ( 'NONE', ( #170, #613, #614, #615 ) ) ;
#159 = ORIENTED_EDGE ( 'NONE', *, *, #422, .F. ) ;
#160 = ORIENTED_EDGE ( 'NONE', *, *, #425, .F. ) ;
#161 = ORIENTED_EDGE ( 'NONE', *, *, #419, .F. ) ;
#162 = ORIENTED_EDGE ( 'NONE', *, *, #385, .T. ) ;
#163 = ORIENTED_EDGE ( 'NONE', *, *, #430, .F. ) ;
#164 = ORIENTED_EDGE ( 'NONE', *, *, #432, .F. ) ;
#165 = ORIENTED_EDGE ( 'NONE', *, *, #429, .T. ) ;
#166 = ORIENTED_EDGE ( 'NONE', *, *, #423, .F. ) ;
#167 = ORIENTED_EDGE ( 'NONE', *, *, #427, .T. ) ;
#168 = ORIENTED_EDGE ( 'NONE', *, *, #429, .F. ) ;
#169 = ORIENTED_EDGE ( 'NONE', *, *, #424, .F. ) ;
#170 = ORIENTED_EDGE ( 'NONE', *, *, #379, .F. ) ;
#171 = ORIENTED_EDGE ( 'NONE', *, *, #384, .F. ) ;
#172 = ORIENTED_EDGE ( 'NONE', *, *, #431, .F. ) ;
#173 = ORIENTED_EDGE ( 'NONE', *, *, #431, .T. ) ;
#174 = ORIENTED_EDGE ( 'NONE', *, *, #426, .F. ) ;
#175 = DIRECTION ( 'NONE',  ( 0.0000000000000000000, 0.0000000000000000000, 1.000000000000000000 ) ) ;
#176 = DIRECTION ( 'NONE',  ( 1.000000000000000000, 9.355643813918708300E-017, 0.0000000000000000000 ) ) ;
#177 = CARTESIAN_POINT ( 'NONE',  ( -0.1349999999999999800, -0.07928095787645629600, 0.07812500000000000000 ) ) ;
#178 = DIRECTION ( 'NONE',  ( -0.0000000000000000000, 1.000000000000000000, -0.0000000000000000000 ) ) ;
#179 = CARTESIAN_POINT ( 'NONE',  ( -0.4000000000000000200, 0.04687499999999984000, -1.491291035056853300 ) ) ;
#180 = CARTESIAN_POINT ( 'NONE',  ( -0.4000000000000000200, 0.04687499999999984000, -1.000000000000000000 ) ) ;
#181 = CARTESIAN_POINT ( 'NONE',  ( -0.4000000000000000200, 0.04687499999999984000, -0.07812500000000013900 ) ) ;
#182 = DIRECTION ( 'NONE',  ( -1.000000000000000000, -9.355643813918708300E-017, 0.0000000000000000000 ) ) ;
#183 = CARTESIAN_POINT ( 'NONE',  ( -7.483210337862212500E-018, -0.03500000000000000300, 1.750000000000000200 ) ) ;
#184 = DIRECTION ( 'NONE',  ( 0.0000000000000000000, 0.0000000000000000000, 1.000000000000000000 ) ) ;
#185 = CARTESIAN_POINT ( 'NONE',  ( 0.03500000000000000300, 0.0000000000000000000, 1.746937896776592700 ) ) ;
#186 = CARTESIAN_POINT ( 'NONE',  ( -6.429395695523604000E-018, -0.03500000000000000300, -1.491291035056853300 ) ) ;
#187 = CARTESIAN_POINT ( 'NONE',  ( 4.286263797015736000E-018, 0.03500000000000000300, 0.07812500000000013900 ) ) ;
#188 = DIRECTION ( 'NONE',  ( -1.000000000000000000, 0.0000000000000000000, 0.0000000000000000000 ) ) ;
#189 = DIRECTION ( 'NONE',  ( 0.9961946980917454300, 0.0000000000000000000, -0.08715574274765836000 ) ) ;
#190 = DIRECTION ( 'NONE',  ( 0.0000000000000000000, 0.0000000000000000000, 1.000000000000000000 ) ) ;
#191 = CARTESIAN_POINT ( 'NONE',  ( 0.03500000000000000300, -0.02050252531694167500, 1.746937896776592900 ) ) ;
#192 = CARTESIAN_POINT ( 'NONE',  ( -0.03500000000000000300, 0.03500000000000000300, -1.491291035056853300 ) ) ;
#193 = DIRECTION ( 'NONE',  ( -2.875629467015044100E-015, 1.000000000000000000, 0.0000000000000000000 ) ) ;
#194 = DIRECTION ( 'NONE',  ( 2.875629467015044100E-015, -1.000000000000000000, -2.515849788649119200E-016 ) ) ;
#195 = CARTESIAN_POINT ( 'NONE',  ( 0.02050252531694166800, -0.03500000000000000300, 1.748206261461114700 ) ) ;
#196 = CARTESIAN_POINT ( 'NONE',  ( -0.03500000000000000300, 0.03500000000000012800, 1.753062103223407500 ) ) ;
#197 = DIRECTION ( 'NONE',  ( 1.000000000000000000, 6.829619984160658000E-017, 0.0000000000000000000 ) ) ;
#198 = DIRECTION ( 'NONE',  ( 9.355643813918708300E-017, -1.000000000000000000, 0.0000000000000000000 ) ) ;
#199 = CARTESIAN_POINT ( 'NONE',  ( -0.2750000000000000200, 0.04687499999999984700, -0.8750000000000000000 ) ) ;
#200 = CARTESIAN_POINT ( 'NONE',  ( -0.03500000000000003800, 0.04687499999999987500, -1.491291035056853300 ) ) ;
#201 = CARTESIAN_POINT ( 'NONE',  ( -0.03500000000000000300, 0.03500000000000000300, 0.07812500000000013900 ) ) ;
#202 = CARTESIAN_POINT ( 'NONE',  ( -0.04400971645348120100, 0.03500000000000000300, 1.753850351274670100 ) ) ;
#203 = DIRECTION ( 'NONE',  ( 0.0000000000000000000, 0.0000000000000000000, 1.000000000000000000 ) ) ;
#204 = EDGE_LOOP ( 'NONE', ( #172, #1024, #167, #174 ) ) ;
#205 = ORIENTED_EDGE ( 'NONE', *, *, #390, .F. ) ;
#206 = ORIENTED_EDGE ( 'NONE', *, *, #398, .T. ) ;
#207 = EDGE_LOOP ( 'NONE', ( #160, #169, #166, #165 ) ) ;
#208 = EDGE_LOOP ( 'NONE', ( #1031, #1023, #1029, #1027 ) ) ;
#209 = ORIENTED_EDGE ( 'NONE', *, *, #386, .T. ) ;
#210 = EDGE_LOOP ( 'NONE', ( #1134, #1126, #1301, #1305 ) ) ;
#211 = ORIENTED_EDGE ( 'NONE', *, *, #387, .F. ) ;
#212 = ORIENTED_EDGE ( 'NONE', *, *, #389, .T. ) ;
#213 = EDGE_LOOP ( 'NONE', ( #164, #173, #163, #168 ) ) ;
#214 = EDGE_LOOP ( 'NONE', ( #159, #1030, #1034, #1304 ) ) ;
#215 = ORIENTED_EDGE ( 'NONE', *, *, #388, .T. ) ;
#216 = EDGE_LOOP ( 'NONE', ( #1033, #1021, #1026, #1028 ) ) ;
#217 = EDGE_LOOP ( 'NONE', ( #1032, #1035, #1025, #1022 ) ) ;
#218 = ORIENTED_EDGE ( 'NONE', *, *, #390, .T. ) ;
#219 = CARTESIAN_POINT ( 'NONE',  ( 0.04637525122968799700, -0.05486674061087007400, 1.745942691249235700 ) ) ;
#220 = CARTESIAN_POINT ( 'NONE',  ( 0.01682323793166387600, -0.06278517870878942700, 1.748528157397180500 ) ) ;
#221 = DIRECTION ( 'NONE',  ( 1.000000000000000000, 0.0000000000000000000, 0.0000000000000000000 ) ) ;
#222 = CARTESIAN_POINT ( 'NONE',  ( 0.0000000000000000000, 0.0000000000000000000, -1.000000000000000000 ) ) ;
#223 = DIRECTION ( 'NONE',  ( -0.0000000000000000000, -0.0000000000000000000, -1.000000000000000000 ) ) ;
#224 = CARTESIAN_POINT ( 'NONE',  ( 0.03500000000000000300, 0.0000000000000000000, -1.491291035056853300 ) ) ;
#225 = CARTESIAN_POINT ( 'NONE',  ( 4.286263797015736000E-018, 0.03500000000000000300, -1.491291035056853300 ) ) ;
#226 = DIRECTION ( 'NONE',  ( -1.000000000000000000, 0.0000000000000000000, 0.0000000000000000000 ) ) ;
#227 = DIRECTION ( 'NONE',  ( -0.0000000000000000000, -0.0000000000000000000, 1.000000000000000000 ) ) ;
#228 = CARTESIAN_POINT ( 'NONE',  ( 0.0000000000000000000, 0.0000000000000000000, -0.07812500000000013900 ) ) ;
#229 = DIRECTION ( 'NONE',  ( 0.0000000000000000000, 0.0000000000000000000, 1.000000000000000000 ) ) ;
#230 = CARTESIAN_POINT ( 'NONE',  ( 0.06499999999999998800, 0.0000000000000000000, -1.491291035056853300 ) ) ;
#231 = DIRECTION ( 'NONE',  ( 1.000000000000000000, 0.0000000000000000000, 0.0000000000000000000 ) ) ;
#232 = DIRECTION ( 'NONE',  ( -0.0000000000000000000, -0.0000000000000000000, -1.000000000000000000 ) ) ;
#233 = CARTESIAN_POINT ( 'NONE',  ( 0.0000000000000000000, 0.0000000000000000000, -1.000000000000000000 ) ) ;
#234 = DIRECTION ( 'NONE',  ( 0.0000000000000000000, 0.0000000000000000000, 1.000000000000000000 ) ) ;
#235 = CARTESIAN_POINT ( 'NONE',  ( 0.01682323793166388600, -0.06278517870878942700, -1.491291035056853300 ) ) ;
#236 = DIRECTION ( 'NONE',  ( -1.000000000000000000, 0.0000000000000000000, 0.0000000000000000000 ) ) ;
#237 = DIRECTION ( 'NONE',  ( -0.0000000000000000000, -0.0000000000000000000, 1.000000000000000000 ) ) ;
#238 = CARTESIAN_POINT ( 'NONE',  ( 0.0000000000000000000, 0.0000000000000000000, -0.07812500000000013900 ) ) ;
#239 = DIRECTION ( 'NONE',  ( 0.0000000000000000000, 0.0000000000000000000, 1.000000000000000000 ) ) ;
#240 = DIRECTION ( 'NONE',  ( 0.9659258262890699800, 0.2588190451025140200, 0.0000000000000000000 ) ) ;
#241 = CARTESIAN_POINT ( 'NONE',  ( -0.04473984803250681500, -0.07928095787645629600, -0.07812500000000013900 ) ) ;
#242 = DIRECTION ( 'NONE',  ( 0.0000000000000000000, 0.0000000000000000000, 1.000000000000000000 ) ) ;
#243 = CARTESIAN_POINT ( 'NONE',  ( -0.04473984803250681500, -0.07928095787645629600, -1.491291035056853300 ) ) ;
#244 = DIRECTION ( 'NONE',  ( -0.9659258262890699800, -0.2588190451025140200, 0.0000000000000000000 ) ) ;
#245 = CARTESIAN_POINT ( 'NONE',  ( -0.04473984803250681500, -0.07928095787645629600, -1.000000000000000000 ) ) ;
#246 = DIRECTION ( 'NONE',  ( -3.594536833768800100E-016, -1.000000000000000000, 0.0000000000000000000 ) ) ;
#247 = DIRECTION ( 'NONE',  ( 0.0000000000000000000, 0.0000000000000000000, 1.000000000000000000 ) ) ;
#248 = CARTESIAN_POINT ( 'NONE',  ( 0.01682323793166388300, 0.06278517870878941300, -1.491291035056853300 ) ) ;
#249 = CARTESIAN_POINT ( 'NONE',  ( -0.03500000000000000300, -0.03500000000000000300, -1.491291035056853300 ) ) ;
#250 = DIRECTION ( 'NONE',  ( 3.594536833768800100E-016, 1.000000000000000000, 0.0000000000000000000 ) ) ;
#251 = DIRECTION ( 'NONE',  ( 0.0000000000000000000, 0.0000000000000000000, 1.000000000000000000 ) ) ;
#252 = DIRECTION ( 'NONE',  ( 0.0000000000000000000, 0.0000000000000000000, 1.000000000000000000 ) ) ;
#253 = CARTESIAN_POINT ( 'NONE',  ( -0.03500000000000000300, -0.04687499999999989600, -1.491291035056853300 ) ) ;
#254 = DIRECTION ( 'NONE',  ( -1.000000000000000000, 0.0000000000000000000, 0.0000000000000000000 ) ) ;
#255 = DIRECTION ( 'NONE',  ( 0.0000000000000000000, 0.0000000000000000000, 1.000000000000000000 ) ) ;
#256 = CARTESIAN_POINT ( 'NONE',  ( -0.03500000000000000300, -0.03500000000000000300, -0.07812500000000013900 ) ) ;
#257 = CARTESIAN_POINT ( 'NONE',  ( -6.429395695523604000E-018, -0.03500000000000000300, -1.491291035056853300 ) ) ;
#258 = DIRECTION ( 'NONE',  ( 1.000000000000000000, 0.0000000000000000000, 0.0000000000000000000 ) ) ;
#259 = DIRECTION ( 'NONE',  ( 0.0000000000000000000, 0.0000000000000000000, 1.000000000000000000 ) ) ;
#260 = CARTESIAN_POINT ( 'NONE',  ( 0.0000000000000000000, 0.0000000000000000000, -1.000000000000000000 ) ) ;
#261 = CARTESIAN_POINT ( 'NONE',  ( 4.286263797015736000E-018, -0.03500000000000000300, -0.07812500000000013900 ) ) ;
#262 = CARTESIAN_POINT ( 'NONE',  ( -0.03500000000000000300, -0.03500000000000000300, -1.000000000000000000 ) ) ;
#263 = DIRECTION ( 'NONE',  ( 0.0000000000000000000, 0.0000000000000000000, -1.000000000000000000 ) ) ;
#264 = CARTESIAN_POINT ( 'NONE',  ( 0.0000000000000000000, 0.0000000000000000000, -0.07812500000000013900 ) ) ;
#265 = DIRECTION ( 'NONE',  ( -1.000000000000000000, 0.0000000000000000000, 0.0000000000000000000 ) ) ;
#266 = DIRECTION ( 'NONE',  ( 1.000000000000000000, 0.0000000000000000000, 0.0000000000000000000 ) ) ;
#267 = CARTESIAN_POINT ( 'NONE',  ( 4.286263797015736000E-018, -0.03500000000000000300, -1.000000000000000000 ) ) ;
#268 = DIRECTION ( 'NONE',  ( 1.000000000000000000, 0.0000000000000000000, 0.0000000000000000000 ) ) ;
#269 = DIRECTION ( 'NONE',  ( 0.0000000000000000000, 0.0000000000000000000, 1.000000000000000000 ) ) ;
#270 = CARTESIAN_POINT ( 'NONE',  ( -0.03500000000000000300, 0.03500000000000000300, -1.491291035056853300 ) ) ;
#271 = DIRECTION ( 'NONE',  ( -1.000000000000000000, 0.0000000000000000000, 0.0000000000000000000 ) ) ;
#272 = CARTESIAN_POINT ( 'NONE',  ( 4.286263797015736000E-018, 0.03500000000000000300, -1.000000000000000000 ) ) ;
#273 = DIRECTION ( 'NONE',  ( 2.875629467015044100E-015, -1.000000000000000000, 0.0000000000000000000 ) ) ;
#274 = CARTESIAN_POINT ( 'NONE',  ( -0.03500000000000000300, 0.03500000000000000300, -0.07812500000000013900 ) ) ;
#275 = DIRECTION ( 'NONE',  ( 0.0000000000000000000, 0.0000000000000000000, 1.000000000000000000 ) ) ;
#276 = CARTESIAN_POINT ( 'NONE',  ( -0.03500000000000003800, 0.04687499999999987500, -1.491291035056853300 ) ) ;
#277 = DIRECTION ( 'NONE',  ( -2.875629467015044100E-015, 1.000000000000000000, 0.0000000000000000000 ) ) ;
#278 = CARTESIAN_POINT ( 'NONE',  ( -0.03500000000000000300, 0.03500000000000000300, -1.000000000000000000 ) ) ;
#279 = DIRECTION ( 'NONE',  ( -0.9659258262890646500, 0.2588190451025345600, 0.0000000000000000000 ) ) ;
#280 = CARTESIAN_POINT ( 'NONE',  ( -0.04473984803250685700, 0.07928095787645769700, -0.07812500000000013900 ) ) ;
#281 = DIRECTION ( 'NONE',  ( 0.9659258262890646500, -0.2588190451025345600, 0.0000000000000000000 ) ) ;
#282 = DIRECTION ( 'NONE',  ( 1.000000000000000000, 0.0000000000000000000, 0.0000000000000000000 ) ) ;
#283 = DIRECTION ( 'NONE',  ( 0.0000000000000000000, -0.0000000000000000000, -1.000000000000000000 ) ) ;
#284 = CARTESIAN_POINT ( 'NONE',  ( 0.0000000000000000000, 0.0000000000000000000, 0.07812500000000013900 ) ) ;
#285 = CARTESIAN_POINT ( 'NONE',  ( -0.04473984803250685700, 0.07928095787645769700, -1.000000000000000000 ) ) ;
#286 = CARTESIAN_POINT ( 'NONE',  ( 4.286263797015736000E-018, 0.03500000000000000300, -0.07812500000000013900 ) ) ;
#287 = DIRECTION ( 'NONE',  ( 0.0000000000000000000, 0.0000000000000000000, 1.000000000000000000 ) ) ;
#288 = CARTESIAN_POINT ( 'NONE',  ( -0.04473984803250685700, 0.07928095787645769700, -1.491291035056853300 ) ) ;
#289 = CARTESIAN_POINT ( 'NONE',  ( 0.01682323793166388300, 0.06278517870878941300, -1.491291035056853300 ) ) ;
#290 = CARTESIAN_POINT ( 'NONE',  ( 0.01682323793166386900, 0.06278517870878941300, 1.748528157397180300 ) ) ;
#291 = CARTESIAN_POINT ( 'NONE',  ( 0.06499999999999998800, 0.0000000000000000000, 1.744313236870815200 ) ) ;
#292 = DIRECTION ( 'NONE',  ( 0.0000000000000000000, 0.0000000000000000000, 1.000000000000000000 ) ) ;
#293 = DIRECTION ( 'NONE',  ( -0.9659258262890699800, -0.2588190451025140200, 0.0000000000000000000 ) ) ;
#294 = CARTESIAN_POINT ( 'NONE',  ( -0.04473984803250681500, -0.07928095787645629600, 0.07812500000000013900 ) ) ;
#295 = DIRECTION ( 'NONE',  ( 0.9624950978846090700, 0.2578997841970882000, -0.08420740976417803700 ) ) ;
#296 = CARTESIAN_POINT ( 'NONE',  ( -0.08550513183478428100, -0.09020398275050176000, 1.757480729708833500 ) ) ;
#297 = DIRECTION ( 'NONE',  ( 0.0000000000000000000, 0.0000000000000000000, 1.000000000000000000 ) ) ;
#298 = CARTESIAN_POINT ( 'NONE',  ( -0.04473984803250681500, -0.07928095787645629600, -1.491291035056853300 ) ) ;
#299 = DIRECTION ( 'NONE',  ( 0.0000000000000000000, 0.0000000000000000000, 1.000000000000000000 ) ) ;
#300 = CARTESIAN_POINT ( 'NONE',  ( -0.4000000000000000200, -0.06687500000000000400, -1.491291035056853300 ) ) ;
#301 = CARTESIAN_POINT ( 'NONE',  ( -0.2750000000000000800, -0.07124009618646712200, -1.000000000000000000 ) ) ;
#302 = CARTESIAN_POINT ( 'NONE',  ( 0.04637525122968803900, 0.05486674061087002500, 1.745942691249235700 ) ) ;
#303 = CARTESIAN_POINT ( 'NONE',  ( -0.4000000000000000200, -0.06687500000000000400, -0.8750000000000000000 ) ) ;
#304 = CARTESIAN_POINT ( 'NONE',  ( 0.06499999999999998800, 0.03059449545060642000, 1.744313236870815200 ) ) ;
#305 = DIRECTION ( 'NONE',  ( -0.9993908270190961000, 0.03489949670249026900, 0.0000000000000000000 ) ) ;
#306 = CARTESIAN_POINT ( 'NONE',  ( -0.4000000000000000200, -0.06687500000000000400, -1.000000000000000000 ) ) ;
#307 = DIRECTION ( 'NONE',  ( 0.9993908270190961000, -0.03489949670249026900, 0.0000000000000000000 ) ) ;
#308 = CARTESIAN_POINT ( 'NONE',  ( -0.4000000000000000200, -0.06687500000000000400, -0.07812500000000013900 ) ) ;
#309 = CARTESIAN_POINT ( 'NONE',  ( -0.1349999999999999800, -0.07612900391531031400, -0.07812500000000006900 ) ) ;
#310 = CARTESIAN_POINT ( 'NONE',  ( -0.3482233047033631600, -0.06868308204149775600, -1.000000000000000200 ) ) ;
#311 = CARTESIAN_POINT ( 'NONE',  ( -0.1349999999999999800, -0.07612900391531031400, 0.07812500000000006900 ) ) ;
#312 = CARTESIAN_POINT ( 'NONE',  ( -0.4000000000000000200, -0.06687500000000000400, -0.9482233047033630200 ) ) ;
#313 = DIRECTION ( 'NONE',  ( -0.9993908270190961000, 0.03489949670249026900, 0.0000000000000000000 ) ) ;
#314 = CARTESIAN_POINT ( 'NONE',  ( -0.4000000000000000200, -0.06687500000000000400, 0.07812500000000013900 ) ) ;
#315 = CARTESIAN_POINT ( 'NONE',  ( -0.2912499999999999500, -0.07067263368222639900, 0.07812500000000004200 ) ) ;
#316 = DIRECTION ( 'NONE',  ( 0.9955924487632795700, -0.03476685441097646800, -0.08710305275880148000 ) ) ;
#317 = CARTESIAN_POINT ( 'NONE',  ( -0.4000000000000000200, -0.06687500000000000400, 1.648581902776710600 ) ) ;
#318 = CARTESIAN_POINT ( 'NONE',  ( -0.2641055321565427000, -0.07162053938676364600, 1.773106240038179000 ) ) ;
#319 = CARTESIAN_POINT ( 'NONE',  ( -0.2912499999999999500, -0.07067263368222639900, -0.07812499999999998600 ) ) ;
#320 = CARTESIAN_POINT ( 'NONE',  ( -0.4409217436856229800, -0.06544598122155442800, 1.788575654074575200 ) ) ;
#321 = DIRECTION ( 'NONE',  ( 0.0000000000000000000, 0.0000000000000000000, 1.000000000000000000 ) ) ;
#322 = CARTESIAN_POINT ( 'NONE',  ( -0.4000000000000000200, -0.04687500000000008300, -1.491291035056853300 ) ) ;
#323 = DIRECTION ( 'NONE',  ( -0.0000000000000000000, -1.000000000000000000, -0.0000000000000000000 ) ) ;
#324 = DIRECTION ( 'NONE',  ( -0.0000000000000000000, 1.000000000000000000, -0.0000000000000000000 ) ) ;
#325 = CARTESIAN_POINT ( 'NONE',  ( -0.3422015992634545000, -0.06889336462911194200, 1.779938760575993800 ) ) ;
#326 = CARTESIAN_POINT ( 'NONE',  ( -0.4000000000000000200, -0.04687500000000008300, 1.648581902776710600 ) ) ;
#327 = DIRECTION ( 'NONE',  ( -1.000000000000000000, -5.463695987328526400E-016, 0.0000000000000000000 ) ) ;
#328 = DIRECTION ( 'NONE',  ( -5.145604097655288900E-016, 1.000000000000000000, 0.0000000000000000000 ) ) ;
#329 = CARTESIAN_POINT ( 'NONE',  ( -0.2750000000000000200, -0.04687500000000001400, -0.8750000000000000000 ) ) ;
#330 = CARTESIAN_POINT ( 'NONE',  ( -0.4000000000000000200, -0.06687500000000000400, -0.8750000000000000000 ) ) ;
#331 = CARTESIAN_POINT ( 'NONE',  ( -0.4000000000000000200, -0.06687500000000001800, 1.726976284172745000 ) ) ;
#332 = DIRECTION ( 'NONE',  ( -1.000000000000000000, -5.463695987328526400E-016, 0.0000000000000000000 ) ) ;
#333 = CARTESIAN_POINT ( 'NONE',  ( -0.2750000000000000200, -0.04687500000000001400, 1.648581902776710600 ) ) ;
#334 = CARTESIAN_POINT ( 'NONE',  ( -0.03500000000000000300, -0.04687499999999989600, -1.000000000000000000 ) ) ;
#335 = DIRECTION ( 'NONE',  ( -5.145604097655288900E-016, 1.000000000000000000, 0.0000000000000000000 ) ) ;
#336 = DIRECTION ( 'NONE',  ( 1.000000000000000000, 5.145604097655288900E-016, 0.0000000000000000000 ) ) ;
#337 = DIRECTION ( 'NONE',  ( -0.9961946980917454300, -5.126023520563360100E-016, 0.08715574274765836000 ) ) ;
#338 = DIRECTION ( 'NONE',  ( 0.0000000000000000000, 0.0000000000000000000, 1.000000000000000000 ) ) ;
#339 = CARTESIAN_POINT ( 'NONE',  ( -0.03500000000000000300, -0.04687499999999989600, -1.491291035056853300 ) ) ;
#340 = DIRECTION ( 'NONE',  ( -1.000000000000000000, -5.463695987328526400E-016, 0.0000000000000000000 ) ) ;
#341 = DIRECTION ( 'NONE',  ( -5.145604097655288900E-016, 1.000000000000000000, 0.0000000000000000000 ) ) ;
#342 = CARTESIAN_POINT ( 'NONE',  ( -0.1349999999999999800, -0.04687499999999994400, 0.0000000000000000000 ) ) ;
#343 = CARTESIAN_POINT ( 'NONE',  ( -0.03500000000000000300, -0.04687499999999989600, 0.07812500000000013900 ) ) ;
#344 = CARTESIAN_POINT ( 'NONE',  ( -0.07874385213119485000, -0.04687499999999991700, 1.756889194383841200 ) ) ;
#345 = DIRECTION ( 'NONE',  ( 3.594536833768800100E-016, 1.000000000000000000, 0.0000000000000000000 ) ) ;
#346 = DIRECTION ( 'NONE',  ( -1.000000000000000000, -5.145604097655288900E-016, 0.0000000000000000000 ) ) ;
#347 = CARTESIAN_POINT ( 'NONE',  ( -0.03500000000000000300, -0.04687499999999989600, -0.07812500000000013900 ) ) ;
#348 = CARTESIAN_POINT ( 'NONE',  ( -0.03500000000000000300, -0.03500000000000000300, 0.07812500000000013900 ) ) ;
#349 = DIRECTION ( 'NONE',  ( -3.594536833768800600E-016, -1.000000000000000000, 3.144812235811395300E-017 ) ) ;
#350 = DIRECTION ( 'NONE',  ( 0.0000000000000000000, 0.0000000000000000000, 1.000000000000000000 ) ) ;
#351 = CARTESIAN_POINT ( 'NONE',  ( -0.03500000000000000300, -0.03500000000000000300, -1.491291035056853300 ) ) ;
#352 = DIRECTION ( 'NONE',  ( 1.000000000000000000, 0.0000000000000000000, 0.0000000000000000000 ) ) ;
#353 = DIRECTION ( 'NONE',  ( 1.000000000000000000, 5.145604097655288900E-016, 0.0000000000000000000 ) ) ;
#354 = CARTESIAN_POINT ( 'NONE',  ( 4.286263797015736000E-018, -0.03500000000000000300, 0.07812500000000013900 ) ) ;
#355 = DIRECTION ( 'NONE',  ( -0.9961946980917454300, 0.0000000000000000000, 0.08715574274765836000 ) ) ;
#356 = DIRECTION ( 'NONE',  ( 1.000000000000000000, 0.0000000000000000000, 0.0000000000000000000 ) ) ;
#357 = DIRECTION ( 'NONE',  ( -0.0000000000000000000, 0.0000000000000000000, 1.000000000000000000 ) ) ;
#358 = CARTESIAN_POINT ( 'NONE',  ( 0.0000000000000000000, 0.0000000000000000000, 0.07812500000000013900 ) ) ;
#359 = CARTESIAN_POINT ( 'NONE',  ( -0.04400971645348120100, -0.03500000000000000300, 1.753850351274670100 ) ) ;
#360 = CARTESIAN_POINT ( 'NONE',  ( -0.03500000000000000300, -0.03500000000000001700, 1.753062103223407500 ) ) ;
#361 = EDGE_CURVE ( 'NONE', #604, #607, #749, .T. ) ;
#362 = EDGE_CURVE ( 'NONE', #571, #603, #752, .T. ) ;
#363 = EDGE_CURVE ( 'NONE', #602, #566, #748, .T. ) ;
#364 = EDGE_CURVE ( 'NONE', #590, #598, #751, .T. ) ;
#365 = EDGE_CURVE ( 'NONE', #590, #603, #754, .T. ) ;
#366 = EDGE_CURVE ( 'NONE', #597, #599, #756, .T. ) ;
#367 = EDGE_CURVE ( 'NONE', #599, #596, #759, .T. ) ;
#368 = EDGE_CURVE ( 'NONE', #594, #597, #758, .T. ) ;
#369 = EDGE_CURVE ( 'NONE', #594, #596, #763, .T. ) ;
#370 = EDGE_CURVE ( 'NONE', #596, #541, #761, .T. ) ;
#371 = EDGE_CURVE ( 'NONE', #546, #594, #767, .T. ) ;
#372 = EDGE_CURVE ( 'NONE', #1038, #595, #1154, .T. ) ;
#373 = EDGE_CURVE ( 'NONE', #593, #542, #765, .T. ) ;
#374 = EDGE_CURVE ( 'NONE', #593, #595, #772, .T. ) ;
#375 = EDGE_CURVE ( 'NONE', #595, #592, #771, .T. ) ;
#376 = EDGE_CURVE ( 'NONE', #589, #593, #774, .T. ) ;
#377 = EDGE_CURVE ( 'NONE', #589, #592, #776, .T. ) ;
#378 = EDGE_CURVE ( 'NONE', #592, #588, #769, .T. ) ;
#379 = EDGE_CURVE ( 'NONE', #584, #589, #780, .T. ) ;
#380 = EDGE_CURVE ( 'NONE', #555, #575, #782, .T. ) ;
#381 = EDGE_CURVE ( 'NONE', #575, #585, #784, .T. ) ;
#382 = EDGE_CURVE ( 'NONE', #585, #584, #778, .T. ) ;
#383 = EDGE_CURVE ( 'NONE', #584, #588, #787, .T. ) ;
#384 = EDGE_CURVE ( 'NONE', #588, #586, #786, .T. ) ;
#385 = EDGE_CURVE ( 'NONE', #583, #586, #791, .T. ) ;
#386 = EDGE_CURVE ( 'NONE', #587, #579, #789, .T. ) ;
#387 = EDGE_CURVE ( 'NONE', #587, #564, #794, .T. ) ;
#388 = EDGE_CURVE ( 'NONE', #573, #583, #795, .T. ) ;
#389 = EDGE_CURVE ( 'NONE', #579, #570, #793, .T. ) ;
#390 = EDGE_CURVE ( 'NONE', #579, #583, #799, .T. ) ;
#391 = EDGE_CURVE ( 'NONE', #578, #573, #1155, .T. ) ;
#392 = EDGE_CURVE ( 'NONE', #578, #577, #801, .T. ) ;
#393 = EDGE_CURVE ( 'NONE', #567, #582, #804, .T. ) ;
#394 = EDGE_CURVE ( 'NONE', #582, #580, #1156, .T. ) ;
#395 = EDGE_CURVE ( 'NONE', #580, #543, #797, .T. ) ;
#396 = EDGE_CURVE ( 'NONE', #558, #581, #808, .T. ) ;
#397 = EDGE_CURVE ( 'NONE', #570, #581, #1152, .T. ) ;
#398 = EDGE_CURVE ( 'NONE', #570, #573, #807, .T. ) ;
#399 = EDGE_CURVE ( 'NONE', #567, #577, #812, .T. ) ;
#400 = EDGE_CURVE ( 'NONE', #577, #548, #813, .T. ) ;
#401 = EDGE_CURVE ( 'NONE', #1108, #567, #815, .T. ) ;
#402 = EDGE_CURVE ( 'NONE', #549, #576, #1151, .T. ) ;
#403 = EDGE_CURVE ( 'NONE', #574, #576, #811, .T. ) ;
#404 = EDGE_CURVE ( 'NONE', #574, #544, #819, .T. ) ;
#405 = EDGE_CURVE ( 'NONE', #572, #569, #821, .T. ) ;
#406 = EDGE_CURVE ( 'NONE', #572, #545, #820, .T. ) ;
#407 = EDGE_CURVE ( 'NONE', #560, #569, #824, .T. ) ;
#408 = EDGE_CURVE ( 'NONE', #568, #571, #826, .T. ) ;
#409 = EDGE_CURVE ( 'NONE', #571, #566, #828, .T. ) ;
#410 = EDGE_CURVE ( 'NONE', #566, #561, #830, .T. ) ;
#411 = EDGE_CURVE ( 'NONE', #550, #568, #832, .T. ) ;
#412 = EDGE_CURVE ( 'NONE', #568, #561, #834, .T. ) ;
#413 = EDGE_CURVE ( 'NONE', #561, #552, #822, .T. ) ;
#414 = EDGE_CURVE ( 'NONE', #553, #562, #838, .T. ) ;
#415 = EDGE_CURVE ( 'NONE', #565, #547, #840, .T. ) ;
#416 = EDGE_CURVE ( 'NONE', #563, #565, #841, .T. ) ;
#417 = EDGE_CURVE ( 'NONE', #565, #562, #842, .T. ) ;
#418 = EDGE_CURVE ( 'NONE', #562, #559, #836, .T. ) ;
#419 = EDGE_CURVE ( 'NONE', #564, #555, #846, .T. ) ;
#420 = EDGE_CURVE ( 'NONE', #564, #563, #844, .T. ) ;
#421 = EDGE_CURVE ( 'NONE', #563, #559, #850, .T. ) ;
#422 = EDGE_CURVE ( 'NONE', #559, #555, #848, .T. ) ;
#423 = EDGE_CURVE ( 'NONE', #554, #558, #854, .T. ) ;
#424 = EDGE_CURVE ( 'NONE', #558, #543, #856, .T. ) ;
#425 = EDGE_CURVE ( 'NONE', #543, #556, #858, .T. ) ;
#426 = EDGE_CURVE ( 'NONE', #557, #560, #860, .T. ) ;
#427 = EDGE_CURVE ( 'NONE', #545, #560, #862, .T. ) ;
#428 = EDGE_CURVE ( 'NONE', #545, #551, #852, .T. ) ;
#429 = EDGE_CURVE ( 'NONE', #554, #556, #865, .T. ) ;
#430 = EDGE_CURVE ( 'NONE', #556, #557, #863, .T. ) ;
#431 = EDGE_CURVE ( 'NONE', #551, #557, #868, .T. ) ;
#432 = EDGE_CURVE ( 'NONE', #551, #554, #866, .T. ) ;
#433 = EDGE_CURVE ( 'NONE', #550, #552, #871, .T. ) ;
#434 = EDGE_CURVE ( 'NONE', #552, #553, #869, .T. ) ;
#435 = EDGE_CURVE ( 'NONE', #548, #549, #1150, .T. ) ;
#436 = EDGE_CURVE ( 'NONE', #1108, #548, #873, .T. ) ;
#437 = EDGE_CURVE ( 'NONE', #547, #553, #876, .T. ) ;
#438 = EDGE_CURVE ( 'NONE', #547, #550, #875, .T. ) ;
#439 = EDGE_CURVE ( 'NONE', #608, #600, #879, .T. ) ;
#440 = EDGE_CURVE ( 'NONE', #580, #575, #880, .T. ) ;
#441 = EDGE_CURVE ( 'NONE', #586, #578, #882, .T. ) ;
#442 = EDGE_CURVE ( 'NONE', #603, #609, #884, .T. ) ;
#443 = EDGE_CURVE ( 'NONE', #569, #591, #886, .T. ) ;
#444 = EDGE_CURVE ( 'NONE', #607, #606, #888, .T. ) ;
#445 = EDGE_CURVE ( 'NONE', #606, #574, #890, .T. ) ;
#446 = EDGE_CURVE ( 'NONE', #591, #607, #1149, .T. ) ;
#447 = EDGE_CURVE ( 'NONE', #576, #610, #892, .T. ) ;
#448 = EDGE_CURVE ( 'NONE', #581, #587, #895, .T. ) ;
#449 = EDGE_CURVE ( 'NONE', #604, #602, #896, .T. ) ;
#450 = EDGE_CURVE ( 'NONE', #600, #599, #898, .T. ) ;
#451 = EDGE_CURVE ( 'NONE', #597, #604, #899, .T. ) ;
#452 = EDGE_CURVE ( 'NONE', #600, #598, #901, .T. ) ;
#453 = EDGE_CURVE ( 'NONE', #601, #605, #903, .T. ) ;
#454 = EDGE_CURVE ( 'NONE', #601, #590, #877, .T. ) ;
#455 = EDGE_CURVE ( 'NONE', #544, #549, #906, .T. ) ;
#456 = EDGE_CURVE ( 'NONE', #542, #1038, #904, .T. ) ;
#457 = EDGE_CURVE ( 'NONE', #544, #1108, #908, .T. ) ;
#458 = EDGE_CURVE ( 'NONE', #541, #1038, #1148, .T. ) ;
#459 = EDGE_CURVE ( 'NONE', #546, #541, #911, .T. ) ;
#460 = EDGE_CURVE ( 'NONE', #542, #546, #914, .T. ) ;
#461 = EDGE_CURVE ( 'NONE', #610, #608, #915, .T. ) ;
#462 = EDGE_CURVE ( 'NONE', #605, #608, #1147, .T. ) ;
#463 = EDGE_CURVE ( 'NONE', #609, #601, #1146, .T. ) ;
#464 = EDGE_CURVE ( 'NONE', #609, #572, #917, .T. ) ;
#465 = EDGE_CURVE ( 'NONE', #606, #610, #919, .T. ) ;
#466 = EDGE_CURVE ( 'NONE', #598, #605, #918, .T. ) ;
#467 = AXIS2_PLACEMENT_3D ( 'NONE', #199, #198, #197 ) ;
#468 = AXIS2_PLACEMENT_3D ( 'NONE', #358, #357, #356 ) ;
#469 = AXIS2_PLACEMENT_3D ( 'NONE', #342, #341, #340 ) ;
#470 = AXIS2_PLACEMENT_3D ( 'NONE', #333, #335, #332 ) ;
#471 = AXIS2_PLACEMENT_3D ( 'NONE', #329, #328, #327 ) ;
#472 = AXIS2_PLACEMENT_3D ( 'NONE', #284, #283, #282 ) ;
#473 = AXIS2_PLACEMENT_3D ( 'NONE', #264, #263, #265 ) ;
#474 = AXIS2_PLACEMENT_3D ( 'NONE', #260, #259, #258 ) ;
#475 = AXIS2_PLACEMENT_3D ( 'NONE', #238, #237, #236 ) ;
#476 = AXIS2_PLACEMENT_3D ( 'NONE', #233, #232, #231 ) ;
#477 = AXIS2_PLACEMENT_3D ( 'NONE', #228, #227, #226 ) ;
#478 = AXIS2_PLACEMENT_3D ( 'NONE', #222, #223, #221 ) ;
#479 = AXIS2_PLACEMENT_3D ( 'NONE', #151, #149, #21 ) ;
#480 = AXIS2_PLACEMENT_3D ( 'NONE', #142, #141, #140 ) ;
#481 = AXIS2_PLACEMENT_3D ( 'NONE', #117, #116, #115 ) ;
#482 = AXIS2_PLACEMENT_3D ( 'NONE', #109, #108, #110 ) ;
#483 = AXIS2_PLACEMENT_3D ( 'NONE', #100, #99, #98 ) ;
#484 = AXIS2_PLACEMENT_3D ( 'NONE', #90, #89, #88 ) ;
#485 = AXIS2_PLACEMENT_3D ( 'NONE', #1194, #1193, #1190 ) ;
#486 = AXIS2_PLACEMENT_3D ( 'NONE', #1188, #1189, #1191 ) ;
#487 = AXIS2_PLACEMENT_3D ( 'NONE', #1197, #1184, #1183 ) ;
#488 = AXIS2_PLACEMENT_3D ( 'NONE', #1186, #1180, #1179 ) ;
#489 = AXIS2_PLACEMENT_3D ( 'NONE', #1177, #1178, #1185 ) ;
#490 = AXIS2_PLACEMENT_3D ( 'NONE', #1174, #1176, #1181 ) ;
#491 = AXIS2_PLACEMENT_3D ( 'NONE', #1175, #1170, #1169 ) ;
#492 = AXIS2_PLACEMENT_3D ( 'NONE', #1167, #1168, #1172 ) ;
#493 = AXIS2_PLACEMENT_3D ( 'NONE', #1164, #1166, #1171 ) ;
#494 = AXIS2_PLACEMENT_3D ( 'NONE', #1260, #1262, #1165 ) ;
#495 = AXIS2_PLACEMENT_3D ( 'NONE', #1261, #1256, #1255 ) ;
#496 = AXIS2_PLACEMENT_3D ( 'NONE', #1253, #1254, #1258 ) ;
#497 = AXIS2_PLACEMENT_3D ( 'NONE', #1257, #1249, #1248 ) ;
#498 = AXIS2_PLACEMENT_3D ( 'NONE', #1246, #1247, #1251 ) ;
#499 = AXIS2_PLACEMENT_3D ( 'NONE', #1250, #1242, #1241 ) ;
#500 = AXIS2_PLACEMENT_3D ( 'NONE', #1244, #1237, #1239 ) ;
#501 = AXIS2_PLACEMENT_3D ( 'NONE', #1235, #1236, #1243 ) ;
#502 = AXIS2_PLACEMENT_3D ( 'NONE', #1238, #1161, #1160 ) ;
#503 = AXIS2_PLACEMENT_3D ( 'NONE', #1233, #1157, #1231 ) ;
#504 = AXIS2_PLACEMENT_3D ( 'NONE', #1162, #1228, #1227 ) ;
#505 = AXIS2_PLACEMENT_3D ( 'NONE', #1158, #1224, #1223 ) ;
#506 = AXIS2_PLACEMENT_3D ( 'NONE', #1229, #1220, #1219 ) ;
#507 = AXIS2_PLACEMENT_3D ( 'NONE', #1217, #1218, #1225 ) ;
#508 = AXIS2_PLACEMENT_3D ( 'NONE', #1214, #1215, #1221 ) ;
#509 = AXIS2_PLACEMENT_3D ( 'NONE', #1210, #1213, #1216 ) ;
#510 = AXIS2_PLACEMENT_3D ( 'NONE', #1163, #1211, #1212 ) ;
#511 = AXIS2_PLACEMENT_3D ( 'NONE', #1106, #1105, #1104 ) ;
#512 = AXIS2_PLACEMENT_3D ( 'NONE', #1040, #1092, #1091 ) ;
#513 = AXIS2_PLACEMENT_3D ( 'NONE', #1107, #1081, #1080 ) ;
#514 = AXIS2_PLACEMENT_3D ( 'NONE', #1095, #1064, #1061 ) ;
#515 = AXIS2_PLACEMENT_3D ( 'NONE', #1082, #1045, #1044 ) ;
#516 = AXIS2_PLACEMENT_3D ( 'NONE', #1069, #1041, #1102 ) ;
#517 = AXIS2_PLACEMENT_3D ( 'NONE', #1046, #1099, #1098 ) ;
#518 =( GEOMETRIC_REPRESENTATION_CONTEXT ( 3 ) GLOBAL_UNCERTAINTY_ASSIGNED_CONTEXT ( ( #1145 ) ) GLOBAL_UNIT_ASSIGNED_CONTEXT ( ( #1076, #1075, #1074 ) ) REPRESENTATION_CONTEXT ( 'NONE', 'WORKASPACE' ) );
#519 = AXIS2_PLACEMENT_3D ( 'NONE', #1042, #1094, #1093 ) ;
#520 = AXIS2_PLACEMENT_3D ( 'NONE', #1089, #1090, #1100 ) ;
#521 = AXIS2_PLACEMENT_3D ( 'NONE', #1096, #1087, #1086 ) ;
#522 = AXIS2_PLACEMENT_3D ( 'NONE', #1071, #1070, #1068 ) ;
#523 = CC_DESIGN_PERSON_AND_ORGANIZATION_ASSIGNMENT ( #979, #1065, ( #1015 ) ) ;
#524 = PRODUCT_DEFINITION ( 'UNKNOWN', '', #529, #1017 ) ;
#525 = APPROVAL ( #1060, 'UNSPECIFIED' ) ;
#526 = CC_DESIGN_APPROVAL ( #525, ( #524 ) ) ;
#527 = CC_DESIGN_PERSON_AND_ORGANIZATION_ASSIGNMENT ( #987, #1058, ( #524 ) ) ;
#528 = CC_DESIGN_DATE_AND_TIME_ASSIGNMENT ( #991, #1057, ( #524 ) ) ;
#529 = PRODUCT_DEFINITION_FORMATION_WITH_SPECIFIED_SOURCE ( 'ANY', '', #1015, .NOT_KNOWN. ) ;
#530 = APPROVAL ( #1056, 'UNSPECIFIED' ) ;
#531 = CC_DESIGN_APPROVAL ( #530, ( #529 ) ) ;
#532 = CC_DESIGN_PERSON_AND_ORGANIZATION_ASSIGNMENT ( #999, #1054, ( #529 ) ) ;
#533 = CC_DESIGN_PERSON_AND_ORGANIZATION_ASSIGNMENT ( #1000, #1053, ( #529 ) ) ;
#534 = SECURITY_CLASSIFICATION ( '', '', #1052 ) ;
#535 = CC_DESIGN_PERSON_AND_ORGANIZATION_ASSIGNMENT ( #1001, #1050, ( #534 ) ) ;
#536 = CC_DESIGN_DATE_AND_TIME_ASSIGNMENT ( #1005, #1049, ( #534 ) ) ;
#537 = APPROVAL ( #1048, 'UNSPECIFIED' ) ;
#538 = CC_DESIGN_APPROVAL ( #537, ( #534 ) ) ;
#539 = CC_DESIGN_SECURITY_CLASSIFICATION ( #534, ( #529 ) ) ;
#540 = PRODUCT_RELATED_PRODUCT_CATEGORY ( 'detail', '', ( #1015 ) ) ;
#541 = VERTEX_POINT ( 'NONE', #76 ) ;
#542 = VERTEX_POINT ( 'NONE', #71 ) ;
#543 = VERTEX_POINT ( 'NONE', #73 ) ;
#544 = VERTEX_POINT ( 'NONE', #70 ) ;
#545 = VERTEX_POINT ( 'NONE', #69 ) ;
#546 = VERTEX_POINT ( 'NONE', #68 ) ;
#547 = VERTEX_POINT ( 'NONE', #72 ) ;
#548 = VERTEX_POINT ( 'NONE', #67 ) ;
#549 = VERTEX_POINT ( 'NONE', #66 ) ;
#550 = VERTEX_POINT ( 'NONE', #65 ) ;
#551 = VERTEX_POINT ( 'NONE', #83 ) ;
#552 = VERTEX_POINT ( 'NONE', #64 ) ;
#553 = VERTEX_POINT ( 'NONE', #63 ) ;
#554 = VERTEX_POINT ( 'NONE', #62 ) ;
#555 = VERTEX_POINT ( 'NONE', #60 ) ;
#556 = VERTEX_POINT ( 'NONE', #59 ) ;
#557 = VERTEX_POINT ( 'NONE', #61 ) ;
#558 = VERTEX_POINT ( 'NONE', #58 ) ;
#559 = VERTEX_POINT ( 'NONE', #57 ) ;
#560 = VERTEX_POINT ( 'NONE', #56 ) ;
#561 = VERTEX_POINT ( 'NONE', #55 ) ;
#562 = VERTEX_POINT ( 'NONE', #54 ) ;
#563 = VERTEX_POINT ( 'NONE', #53 ) ;
#564 = VERTEX_POINT ( 'NONE', #52 ) ;
#565 = VERTEX_POINT ( 'NONE', #51 ) ;
#566 = VERTEX_POINT ( 'NONE', #50 ) ;
#567 = VERTEX_POINT ( 'NONE', #48 ) ;
#568 = VERTEX_POINT ( 'NONE', #47 ) ;
#569 = VERTEX_POINT ( 'NONE', #49 ) ;
#570 = VERTEX_POINT ( 'NONE', #46 ) ;
#571 = VERTEX_POINT ( 'NONE', #45 ) ;
#572 = VERTEX_POINT ( 'NONE', #44 ) ;
#573 = VERTEX_POINT ( 'NONE', #43 ) ;
#574 = VERTEX_POINT ( 'NONE', #42 ) ;
#575 = VERTEX_POINT ( 'NONE', #41 ) ;
#576 = VERTEX_POINT ( 'NONE', #40 ) ;
#577 = VERTEX_POINT ( 'NONE', #39 ) ;
#578 = VERTEX_POINT ( 'NONE', #38 ) ;
#579 = VERTEX_POINT ( 'NONE', #37 ) ;
#580 = VERTEX_POINT ( 'NONE', #36 ) ;
#581 = VERTEX_POINT ( 'NONE', #35 ) ;
#582 = VERTEX_POINT ( 'NONE', #34 ) ;
#583 = VERTEX_POINT ( 'NONE', #32 ) ;
#584 = VERTEX_POINT ( 'NONE', #31 ) ;
#585 = VERTEX_POINT ( 'NONE', #33 ) ;
#586 = VERTEX_POINT ( 'NONE', #30 ) ;
#587 = VERTEX_POINT ( 'NONE', #29 ) ;
#588 = VERTEX_POINT ( 'NONE', #28 ) ;
#589 = VERTEX_POINT ( 'NONE', #27 ) ;
#590 = VERTEX_POINT ( 'NONE', #26 ) ;
#591 = VERTEX_POINT ( 'NONE', #23 ) ;
#592 = VERTEX_POINT ( 'NONE', #155 ) ;
#593 = VERTEX_POINT ( 'NONE', #24 ) ;
#594 = VERTEX_POINT ( 'NONE', #22 ) ;
#595 = VERTEX_POINT ( 'NONE', #153 ) ;
#596 = VERTEX_POINT ( 'NONE', #154 ) ;
#597 = VERTEX_POINT ( 'NONE', #156 ) ;
#598 = VERTEX_POINT ( 'NONE', #1232 ) ;
#599 = VERTEX_POINT ( 'NONE', #1209 ) ;
#600 = VERTEX_POINT ( 'NONE', #1208 ) ;
#601 = VERTEX_POINT ( 'NONE', #1207 ) ;
#602 = VERTEX_POINT ( 'NONE', #1206 ) ;
#603 = VERTEX_POINT ( 'NONE', #1205 ) ;
#604 = VERTEX_POINT ( 'NONE', #1204 ) ;
#605 = VERTEX_POINT ( 'NONE', #1203 ) ;
#606 = VERTEX_POINT ( 'NONE', #1202 ) ;
#607 = VERTEX_POINT ( 'NONE', #1201 ) ;
#608 = VERTEX_POINT ( 'NONE', #1200 ) ;
#609 = VERTEX_POINT ( 'NONE', #1199 ) ;
#610 = VERTEX_POINT ( 'NONE', #1198 ) ;
#611 = ORIENTED_EDGE ( 'NONE', *, *, #381, .F. ) ;
#612 = ORIENTED_EDGE ( 'NONE', *, *, #380, .F. ) ;
#613 = ORIENTED_EDGE ( 'NONE', *, *, #383, .T. ) ;
#614 = ORIENTED_EDGE ( 'NONE', *, *, #378, .F. ) ;
#615 = ORIENTED_EDGE ( 'NONE', *, *, #377, .F. ) ;
#616 = ORIENTED_EDGE ( 'NONE', *, *, #376, .F. ) ;
#617 = ORIENTED_EDGE ( 'NONE', *, *, #377, .T. ) ;
#618 = ORIENTED_EDGE ( 'NONE', *, *, #375, .F. ) ;
#619 = ORIENTED_EDGE ( 'NONE', *, *, #374, .F. ) ;
#620 = ORIENTED_EDGE ( 'NONE', *, *, #456, .F. ) ;
#621 = ORIENTED_EDGE ( 'NONE', *, *, #373, .F. ) ;
#622 = ORIENTED_EDGE ( 'NONE', *, *, #374, .T. ) ;
#623 = ORIENTED_EDGE ( 'NONE', *, *, #372, .F. ) ;
#624 = ORIENTED_EDGE ( 'NONE', *, *, #371, .F. ) ;
#625 = ORIENTED_EDGE ( 'NONE', *, *, #459, .T. ) ;
#626 = ORIENTED_EDGE ( 'NONE', *, *, #370, .F. ) ;
#627 = ORIENTED_EDGE ( 'NONE', *, *, #369, .F. ) ;
#628 = ORIENTED_EDGE ( 'NONE', *, *, #368, .F. ) ;
#629 = ORIENTED_EDGE ( 'NONE', *, *, #369, .T. ) ;
#630 = ORIENTED_EDGE ( 'NONE', *, *, #367, .F. ) ;
#631 = ORIENTED_EDGE ( 'NONE', *, *, #366, .F. ) ;
#632 = ORIENTED_EDGE ( 'NONE', *, *, #364, .F. ) ;
#633 = ORIENTED_EDGE ( 'NONE', *, *, #365, .T. ) ;
#634 = ORIENTED_EDGE ( 'NONE', *, *, #362, .F. ) ;
#635 = ORIENTED_EDGE ( 'NONE', *, *, #409, .T. ) ;
#636 = ORIENTED_EDGE ( 'NONE', *, *, #363, .F. ) ;
#637 = ORIENTED_EDGE ( 'NONE', *, *, #449, .F. ) ;
#638 = ORIENTED_EDGE ( 'NONE', *, *, #451, .F. ) ;
#639 = ORIENTED_EDGE ( 'NONE', *, *, #366, .T. ) ;
#640 = ORIENTED_EDGE ( 'NONE', *, *, #450, .F. ) ;
#641 = ORIENTED_EDGE ( 'NONE', *, *, #452, .T. ) ;
#642 = ORIENTED_EDGE ( 'NONE', *, *, #453, .F. ) ;
#643 = ORIENTED_EDGE ( 'NONE', *, *, #454, .T. ) ;
#644 = ORIENTED_EDGE ( 'NONE', *, *, #364, .T. ) ;
#645 = ORIENTED_EDGE ( 'NONE', *, *, #466, .T. ) ;
#646 = ORIENTED_EDGE ( 'NONE', *, *, #464, .F. ) ;
#647 = ORIENTED_EDGE ( 'NONE', *, *, #463, .T. ) ;
#648 = ORIENTED_EDGE ( 'NONE', *, *, #453, .T. ) ;
#649 = ORIENTED_EDGE ( 'NONE', *, *, #462, .T. ) ;
#650 = ORIENTED_EDGE ( 'NONE', *, *, #461, .F. ) ;
#651 = ORIENTED_EDGE ( 'NONE', *, *, #465, .F. ) ;
#652 = ORIENTED_EDGE ( 'NONE', *, *, #444, .F. ) ;
#653 = ORIENTED_EDGE ( 'NONE', *, *, #446, .F. ) ;
#654 = ORIENTED_EDGE ( 'NONE', *, *, #443, .F. ) ;
#655 = ORIENTED_EDGE ( 'NONE', *, *, #405, .F. ) ;
#656 = ORIENTED_EDGE ( 'NONE', *, *, #445, .F. ) ;
#657 = ORIENTED_EDGE ( 'NONE', *, *, #465, .T. ) ;
#658 = ORIENTED_EDGE ( 'NONE', *, *, #447, .F. ) ;
#659 = ORIENTED_EDGE ( 'NONE', *, *, #403, .F. ) ;
#660 = ORIENTED_EDGE ( 'NONE', *, *, #396, .T. ) ;
#661 = ORIENTED_EDGE ( 'NONE', *, *, #448, .T. ) ;
#662 = ORIENTED_EDGE ( 'NONE', *, *, #387, .T. ) ;
#663 = ORIENTED_EDGE ( 'NONE', *, *, #420, .T. ) ;
#664 = ORIENTED_EDGE ( 'NONE', *, *, #416, .T. ) ;
#665 = ORIENTED_EDGE ( 'NONE', *, *, #415, .T. ) ;
#666 = ORIENTED_EDGE ( 'NONE', *, *, #438, .T. ) ;
#667 = ORIENTED_EDGE ( 'NONE', *, *, #411, .T. ) ;
#668 = ORIENTED_EDGE ( 'NONE', *, *, #408, .T. ) ;
#669 = ORIENTED_EDGE ( 'NONE', *, *, #362, .T. ) ;
#670 = ORIENTED_EDGE ( 'NONE', *, *, #442, .T. ) ;
#671 = ORIENTED_EDGE ( 'NONE', *, *, #464, .T. ) ;
#672 = ORIENTED_EDGE ( 'NONE', *, *, #406, .T. ) ;
#673 = ORIENTED_EDGE ( 'NONE', *, *, #428, .T. ) ;
#674 = ORIENTED_EDGE ( 'NONE', *, *, #432, .T. ) ;
#675 = ORIENTED_EDGE ( 'NONE', *, *, #423, .T. ) ;
#676 = ORIENTED_EDGE ( 'NONE', *, *, #384, .T. ) ;
#677 = ORIENTED_EDGE ( 'NONE', *, *, #441, .T. ) ;
#678 = ORIENTED_EDGE ( 'NONE', *, *, #392, .T. ) ;
#679 = ORIENTED_EDGE ( 'NONE', *, *, #400, .T. ) ;
#680 = ORIENTED_EDGE ( 'NONE', *, *, #435, .T. ) ;
#681 = ORIENTED_EDGE ( 'NONE', *, *, #402, .T. ) ;
#682 = ORIENTED_EDGE ( 'NONE', *, *, #447, .T. ) ;
#683 = ORIENTED_EDGE ( 'NONE', *, *, #461, .T. ) ;
#684 = ORIENTED_EDGE ( 'NONE', *, *, #439, .T. ) ;
#685 = ORIENTED_EDGE ( 'NONE', *, *, #450, .T. ) ;
#686 = ORIENTED_EDGE ( 'NONE', *, *, #367, .T. ) ;
#687 = ORIENTED_EDGE ( 'NONE', *, *, #370, .T. ) ;
#688 = ORIENTED_EDGE ( 'NONE', *, *, #458, .T. ) ;
#689 = ORIENTED_EDGE ( 'NONE', *, *, #372, .T. ) ;
#690 = ORIENTED_EDGE ( 'NONE', *, *, #375, .T. ) ;
#691 = ORIENTED_EDGE ( 'NONE', *, *, #378, .T. ) ;
#692 = ORIENTED_EDGE ( 'NONE', *, *, #394, .T. ) ;
#693 = ORIENTED_EDGE ( 'NONE', *, *, #440, .T. ) ;
#694 = ORIENTED_EDGE ( 'NONE', *, *, #381, .T. ) ;
#695 = ORIENTED_EDGE ( 'NONE', *, *, #1307, .F. ) ;
#696 = ORIENTED_EDGE ( 'NONE', *, *, #449, .T. ) ;
#697 = ORIENTED_EDGE ( 'NONE', *, *, #1308, .T. ) ;
#698 = ORIENTED_EDGE ( 'NONE', *, *, #446, .T. ) ;
#699 = ORIENTED_EDGE ( 'NONE', *, *, #361, .F. ) ;
#700 = ORIENTED_EDGE ( 'NONE', *, *, #380, .T. ) ;
#701 = ORIENTED_EDGE ( 'NONE', *, *, #440, .F. ) ;
#702 = ORIENTED_EDGE ( 'NONE', *, *, #395, .T. ) ;
#703 = ORIENTED_EDGE ( 'NONE', *, *, #425, .T. ) ;
#704 = ORIENTED_EDGE ( 'NONE', *, *, #430, .T. ) ;
#705 = ORIENTED_EDGE ( 'NONE', *, *, #426, .T. ) ;
#706 = ORIENTED_EDGE ( 'NONE', *, *, #407, .T. ) ;
#707 = ORIENTED_EDGE ( 'NONE', *, *, #443, .T. ) ;
#708 = ORIENTED_EDGE ( 'NONE', *, *, #1308, .F. ) ;
#709 = ORIENTED_EDGE ( 'NONE', *, *, #363, .T. ) ;
#710 = ORIENTED_EDGE ( 'NONE', *, *, #410, .T. ) ;
#711 = ORIENTED_EDGE ( 'NONE', *, *, #413, .T. ) ;
#712 = ORIENTED_EDGE ( 'NONE', *, *, #434, .T. ) ;
#713 = ORIENTED_EDGE ( 'NONE', *, *, #414, .T. ) ;
#714 = ORIENTED_EDGE ( 'NONE', *, *, #418, .T. ) ;
#715 = ORIENTED_EDGE ( 'NONE', *, *, #422, .T. ) ;
#716 = ORIENTED_EDGE ( 'NONE', *, *, #382, .T. ) ;
#717 = ORIENTED_EDGE ( 'NONE', *, *, #379, .T. ) ;
#718 = ORIENTED_EDGE ( 'NONE', *, *, #376, .T. ) ;
#719 = ORIENTED_EDGE ( 'NONE', *, *, #373, .T. ) ;
#720 = ORIENTED_EDGE ( 'NONE', *, *, #460, .T. ) ;
#721 = ORIENTED_EDGE ( 'NONE', *, *, #371, .T. ) ;
#722 = ORIENTED_EDGE ( 'NONE', *, *, #368, .T. ) ;
#723 = ORIENTED_EDGE ( 'NONE', *, *, #451, .T. ) ;
#724 = ORIENTED_EDGE ( 'NONE', *, *, #361, .T. ) ;
#725 = ORIENTED_EDGE ( 'NONE', *, *, #444, .T. ) ;
#726 = ORIENTED_EDGE ( 'NONE', *, *, #445, .T. ) ;
#727 = ORIENTED_EDGE ( 'NONE', *, *, #404, .T. ) ;
#728 = ORIENTED_EDGE ( 'NONE', *, *, #457, .T. ) ;
#729 = ORIENTED_EDGE ( 'NONE', *, *, #401, .T. ) ;
#730 = ORIENTED_EDGE ( 'NONE', *, *, #393, .T. ) ;
#731 = ORIENTED_EDGE ( 'NONE', *, *, #1307, .T. ) ;
#732 = ORIENTED_EDGE ( 'NONE', *, *, #397, .F. ) ;
#733 = ORIENTED_EDGE ( 'NONE', *, *, #389, .F. ) ;
#734 = ORIENTED_EDGE ( 'NONE', *, *, #386, .F. ) ;
#735 = ORIENTED_EDGE ( 'NONE', *, *, #448, .F. ) ;
#736 = ORIENTED_EDGE ( 'NONE', *, *, #365, .F. ) ;
#737 = ORIENTED_EDGE ( 'NONE', *, *, #454, .F. ) ;
#738 = ORIENTED_EDGE ( 'NONE', *, *, #463, .F. ) ;
#739 = ORIENTED_EDGE ( 'NONE', *, *, #442, .F. ) ;
#740 = ORIENTED_EDGE ( 'NONE', *, *, #385, .F. ) ;
#741 = ORIENTED_EDGE ( 'NONE', *, *, #388, .F. ) ;
#742 = ORIENTED_EDGE ( 'NONE', *, *, #391, .F. ) ;
#743 = ORIENTED_EDGE ( 'NONE', *, *, #441, .F. ) ;
#744 = ORIENTED_EDGE ( 'NONE', *, *, #462, .F. ) ;
#745 = ORIENTED_EDGE ( 'NONE', *, *, #466, .F. ) ;
#746 = ORIENTED_EDGE ( 'NONE', *, *, #452, .F. ) ;
#747 = ORIENTED_EDGE ( 'NONE', *, *, #439, .F. ) ;
#748 = LINE ( 'NONE', #181, #755 ) ;
#749 = LINE ( 'NONE', #177, #750 ) ;
#750 = VECTOR ( 'NONE', #178, 39.37007874015748100 ) ;
#751 = LINE ( 'NONE', #179, #757 ) ;
#752 = LINE ( 'NONE', #180, #753 ) ;
#753 = VECTOR ( 'NONE', #182, 39.37007874015748100 ) ;
#754 = CIRCLE ( 'NONE', #467, 0.1250000000000000000 ) ;
#755 = VECTOR ( 'NONE', #176, 39.37007874015748100 ) ;
#756 = LINE ( 'NONE', #200, #760 ) ;
#757 = VECTOR ( 'NONE', #175, 39.37007874015748100 ) ;
#758 = LINE ( 'NONE', #201, #764 ) ;
#759 = LINE ( 'NONE', #196, #762 ) ;
#760 = VECTOR ( 'NONE', #203, 39.37007874015748100 ) ;
#761 = LINE ( 'NONE', #202, #768 ) ;
#762 = VECTOR ( 'NONE', #194, 39.37007874015748100 ) ;
#763 = LINE ( 'NONE', #192, #766 ) ;
#764 = VECTOR ( 'NONE', #193, 39.37007874015748100 ) ;
#765 = CIRCLE ( 'NONE', #468, 0.03500000000000000300 ) ;
#766 = VECTOR ( 'NONE', #190, 39.37007874015748100 ) ;
#767 = LINE ( 'NONE', #187, #770 ) ;
#768 = VECTOR ( 'NONE', #189, 39.37007874015748100 ) ;
#769 = LINE ( 'NONE', #360, #781 ) ;
#770 = VECTOR ( 'NONE', #188, 39.37007874015748100 ) ;
#771 = LINE ( 'NONE', #359, #775 ) ;
#772 = LINE ( 'NONE', #186, #773 ) ;
#773 = VECTOR ( 'NONE', #184, 39.37007874015748100 ) ;
#774 = LINE ( 'NONE', #354, #777 ) ;
#775 = VECTOR ( 'NONE', #355, 39.37007874015748100 ) ;
#776 = LINE ( 'NONE', #351, #779 ) ;
#777 = VECTOR ( 'NONE', #352, 39.37007874015748100 ) ;
#778 = LINE ( 'NONE', #343, #788 ) ;
#779 = VECTOR ( 'NONE', #350, 39.37007874015748100 ) ;
#780 = LINE ( 'NONE', #348, #783 ) ;
#781 = VECTOR ( 'NONE', #349, 39.37007874015748100 ) ;
#782 = LINE ( 'NONE', #347, #785 ) ;
#783 = VECTOR ( 'NONE', #345, 39.37007874015748100 ) ;
#784 = CIRCLE ( 'NONE', #469, 0.07812500000000000000 ) ;
#785 = VECTOR ( 'NONE', #346, 39.37007874015748100 ) ;
#786 = LINE ( 'NONE', #344, #792 ) ;
#787 = LINE ( 'NONE', #339, #790 ) ;
#788 = VECTOR ( 'NONE', #353, 39.37007874015748100 ) ;
#789 = CIRCLE ( 'NONE', #471, 0.1250000000000000000 ) ;
#790 = VECTOR ( 'NONE', #338, 39.37007874015748100 ) ;
#791 = CIRCLE ( 'NONE', #470, 0.1250000000000000000 ) ;
#792 = VECTOR ( 'NONE', #337, 39.37007874015748100 ) ;
#793 = LINE ( 'NONE', #330, #800 ) ;
#794 = LINE ( 'NONE', #334, #796 ) ;
#795 = LINE ( 'NONE', #326, #798 ) ;
#796 = VECTOR ( 'NONE', #336, 39.37007874015748100 ) ;
#797 = LINE ( 'NONE', #308, #805 ) ;
#798 = VECTOR ( 'NONE', #324, 39.37007874015748100 ) ;
#799 = LINE ( 'NONE', #322, #802 ) ;
#800 = VECTOR ( 'NONE', #323, 39.37007874015748100 ) ;
#801 = LINE ( 'NONE', #320, #803 ) ;
#802 = VECTOR ( 'NONE', #321, 39.37007874015748100 ) ;
#803 = VECTOR ( 'NONE', #316, 39.37007874015748900 ) ;
#804 = LINE ( 'NONE', #314, #806 ) ;
#805 = VECTOR ( 'NONE', #307, 39.37007874015748100 ) ;
#806 = VECTOR ( 'NONE', #313, 39.37007874015748100 ) ;
#807 = LINE ( 'NONE', #300, #809 ) ;
#808 = LINE ( 'NONE', #306, #810 ) ;
#809 = VECTOR ( 'NONE', #299, 39.37007874015748100 ) ;
#810 = VECTOR ( 'NONE', #305, 39.37007874015748100 ) ;
#811 = LINE ( 'NONE', #289, #817 ) ;
#812 = LINE ( 'NONE', #298, #814 ) ;
#813 = LINE ( 'NONE', #296, #816 ) ;
#814 = VECTOR ( 'NONE', #297, 39.37007874015748100 ) ;
#815 = LINE ( 'NONE', #294, #818 ) ;
#816 = VECTOR ( 'NONE', #295, 39.37007874015748100 ) ;
#817 = VECTOR ( 'NONE', #287, 39.37007874015748100 ) ;
#818 = VECTOR ( 'NONE', #293, 39.37007874015748900 ) ;
#819 = CIRCLE ( 'NONE', #472, 0.06499999999999998800 ) ;
#820 = LINE ( 'NONE', #285, #825 ) ;
#821 = LINE ( 'NONE', #288, #823 ) ;
#822 = LINE ( 'NONE', #286, #839 ) ;
#823 = VECTOR ( 'NONE', #292, 39.37007874015748100 ) ;
#824 = LINE ( 'NONE', #280, #827 ) ;
#825 = VECTOR ( 'NONE', #281, 39.37007874015748900 ) ;
#826 = LINE ( 'NONE', #278, #829 ) ;
#827 = VECTOR ( 'NONE', #279, 39.37007874015748900 ) ;
#828 = LINE ( 'NONE', #276, #831 ) ;
#829 = VECTOR ( 'NONE', #277, 39.37007874015748100 ) ;
#830 = LINE ( 'NONE', #274, #833 ) ;
#831 = VECTOR ( 'NONE', #275, 39.37007874015748100 ) ;
#832 = LINE ( 'NONE', #272, #835 ) ;
#833 = VECTOR ( 'NONE', #273, 39.37007874015748100 ) ;
#834 = LINE ( 'NONE', #270, #837 ) ;
#835 = VECTOR ( 'NONE', #271, 39.37007874015748100 ) ;
#836 = LINE ( 'NONE', #261, #847 ) ;
#837 = VECTOR ( 'NONE', #269, 39.37007874015748100 ) ;
#838 = CIRCLE ( 'NONE', #473, 0.03500000000000000300 ) ;
#839 = VECTOR ( 'NONE', #268, 39.37007874015748100 ) ;
#840 = CIRCLE ( 'NONE', #474, 0.03500000000000000300 ) ;
#841 = LINE ( 'NONE', #267, #843 ) ;
#842 = LINE ( 'NONE', #257, #845 ) ;
#843 = VECTOR ( 'NONE', #266, 39.37007874015748100 ) ;
#844 = LINE ( 'NONE', #262, #851 ) ;
#845 = VECTOR ( 'NONE', #255, 39.37007874015748100 ) ;
#846 = LINE ( 'NONE', #253, #849 ) ;
#847 = VECTOR ( 'NONE', #254, 39.37007874015748100 ) ;
#848 = LINE ( 'NONE', #256, #855 ) ;
#849 = VECTOR ( 'NONE', #251, 39.37007874015748100 ) ;
#850 = LINE ( 'NONE', #249, #853 ) ;
#851 = VECTOR ( 'NONE', #250, 39.37007874015748100 ) ;
#852 = CIRCLE ( 'NONE', #476, 0.06499999999999998800 ) ;
#853 = VECTOR ( 'NONE', #247, 39.37007874015748100 ) ;
#854 = LINE ( 'NONE', #245, #857 ) ;
#855 = VECTOR ( 'NONE', #246, 39.37007874015748100 ) ;
#856 = LINE ( 'NONE', #243, #859 ) ;
#857 = VECTOR ( 'NONE', #244, 39.37007874015748900 ) ;
#858 = LINE ( 'NONE', #241, #861 ) ;
#859 = VECTOR ( 'NONE', #242, 39.37007874015748100 ) ;
#860 = CIRCLE ( 'NONE', #475, 0.06499999999999998800 ) ;
#861 = VECTOR ( 'NONE', #240, 39.37007874015748900 ) ;
#862 = LINE ( 'NONE', #248, #864 ) ;
#863 = CIRCLE ( 'NONE', #477, 0.06499999999999998800 ) ;
#864 = VECTOR ( 'NONE', #252, 39.37007874015748100 ) ;
#865 = LINE ( 'NONE', #235, #867 ) ;
#866 = CIRCLE ( 'NONE', #478, 0.06499999999999998800 ) ;
#867 = VECTOR ( 'NONE', #239, 39.37007874015748100 ) ;
#868 = LINE ( 'NONE', #230, #870 ) ;
#869 = CIRCLE ( 'NONE', #479, 0.03500000000000000300 ) ;
#870 = VECTOR ( 'NONE', #234, 39.37007874015748100 ) ;
#871 = LINE ( 'NONE', #225, #872 ) ;
#872 = VECTOR ( 'NONE', #229, 39.37007874015748100 ) ;
#873 = LINE ( 'NONE', #150, #874 ) ;
#874 = VECTOR ( 'NONE', #147, 39.37007874015748100 ) ;
#875 = CIRCLE ( 'NONE', #480, 0.03500000000000000300 ) ;
#876 = LINE ( 'NONE', #224, #878 ) ;
#877 = LINE ( 'NONE', #111, #907 ) ;
#878 = VECTOR ( 'NONE', #146, 39.37007874015748100 ) ;
#879 = LINE ( 'NONE', #145, #881 ) ;
#880 = LINE ( 'NONE', #139, #883 ) ;
#881 = VECTOR ( 'NONE', #148, 39.37007874015748100 ) ;
#882 = LINE ( 'NONE', #137, #885 ) ;
#883 = VECTOR ( 'NONE', #138, 39.37007874015748100 ) ;
#884 = LINE ( 'NONE', #135, #887 ) ;
#885 = VECTOR ( 'NONE', #136, 39.37007874015748100 ) ;
#886 = LINE ( 'NONE', #133, #889 ) ;
#887 = VECTOR ( 'NONE', #134, 39.37007874015748100 ) ;
#888 = LINE ( 'NONE', #131, #891 ) ;
#889 = VECTOR ( 'NONE', #132, 39.37007874015748900 ) ;
#890 = LINE ( 'NONE', #129, #893 ) ;
#891 = VECTOR ( 'NONE', #130, 39.37007874015748900 ) ;
#892 = LINE ( 'NONE', #125, #894 ) ;
#893 = VECTOR ( 'NONE', #128, 39.37007874015748900 ) ;
#894 = VECTOR ( 'NONE', #123, 39.37007874015748900 ) ;
#895 = LINE ( 'NONE', #121, #897 ) ;
#896 = CIRCLE ( 'NONE', #481, 0.07812500000000000000 ) ;
#897 = VECTOR ( 'NONE', #120, 39.37007874015748100 ) ;
#898 = LINE ( 'NONE', #122, #900 ) ;
#899 = LINE ( 'NONE', #113, #902 ) ;
#900 = VECTOR ( 'NONE', #127, 39.37007874015748100 ) ;
#901 = CIRCLE ( 'NONE', #482, 0.1250000000000000000 ) ;
#902 = VECTOR ( 'NONE', #114, 39.37007874015748100 ) ;
#903 = LINE ( 'NONE', #119, #905 ) ;
#904 = LINE ( 'NONE', #112, #910 ) ;
#905 = VECTOR ( 'NONE', #118, 39.37007874015748100 ) ;
#906 = LINE ( 'NONE', #106, #909 ) ;
#907 = VECTOR ( 'NONE', #107, 39.37007874015748100 ) ;
#908 = CIRCLE ( 'NONE', #483, 0.06499999999999998800 ) ;
#909 = VECTOR ( 'NONE', #105, 39.37007874015748100 ) ;
#910 = VECTOR ( 'NONE', #104, 39.37007874015748100 ) ;
#911 = LINE ( 'NONE', #97, #912 ) ;
#912 = VECTOR ( 'NONE', #93, 39.37007874015748100 ) ;
#913 = VECTOR ( 'NONE', #78, 39.37007874015748900 ) ;
#914 = CIRCLE ( 'NONE', #484, 0.03500000000000000300 ) ;
#915 = LINE ( 'NONE', #94, #916 ) ;
#916 = VECTOR ( 'NONE', #103, 39.37007874015748900 ) ;
#917 = LINE ( 'NONE', #79, #913 ) ;
#918 = LINE ( 'NONE', #81, #923 ) ;
#919 = LINE ( 'NONE', #77, #921 ) ;
#920 = FACE_OUTER_BOUND ( 'NONE', #204, .T. ) ;
#921 = VECTOR ( 'NONE', #75, 39.37007874015748100 ) ;
#922 = FACE_OUTER_BOUND ( 'NONE', #1142, .T. ) ;
#923 = VECTOR ( 'NONE', #74, 39.37007874015748100 ) ;
#924 = FACE_OUTER_BOUND ( 'NONE', #20, .T. ) ;
#925 = FACE_OUTER_BOUND ( 'NONE', #1140, .T. ) ;
#926 = FACE_OUTER_BOUND ( 'NONE', #207, .T. ) ;
#927 = FACE_OUTER_BOUND ( 'NONE', #208, .T. ) ;
#928 = CYLINDRICAL_SURFACE ( 'NONE', #486, 0.06499999999999998800 ) ;
#929 = FACE_OUTER_BOUND ( 'NONE', #217, .T. ) ;
#930 = FACE_OUTER_BOUND ( 'NONE', #6, .T. ) ;
#931 = FACE_OUTER_BOUND ( 'NONE', #1137, .T. ) ;
#932 = CYLINDRICAL_SURFACE ( 'NONE', #489, 0.07812500000000000000 ) ;
#933 = FACE_OUTER_BOUND ( 'NONE', #13, .T. ) ;
#934 = CYLINDRICAL_SURFACE ( 'NONE', #490, 0.07812500000000000000 ) ;
#935 = FACE_OUTER_BOUND ( 'NONE', #216, .T. ) ;
#936 = FACE_OUTER_BOUND ( 'NONE', #8, .T. ) ;
#937 = CYLINDRICAL_SURFACE ( 'NONE', #492, 0.03500000000000000300 ) ;
#938 = FACE_OUTER_BOUND ( 'NONE', #210, .T. ) ;
#939 = CYLINDRICAL_SURFACE ( 'NONE', #493, 0.06499999999999998800 ) ;
#940 = FACE_OUTER_BOUND ( 'NONE', #15, .T. ) ;
#941 = CYLINDRICAL_SURFACE ( 'NONE', #494, 0.03500000000000000300 ) ;
#942 = FACE_OUTER_BOUND ( 'NONE', #5, .T. ) ;
#943 = FACE_OUTER_BOUND ( 'NONE', #19, .T. ) ;
#944 = CYLINDRICAL_SURFACE ( 'NONE', #496, 0.03500000000000000300 ) ;
#945 = FACE_OUTER_BOUND ( 'NONE', #17, .T. ) ;
#946 = FACE_OUTER_BOUND ( 'NONE', #2, .T. ) ;
#947 = CYLINDRICAL_SURFACE ( 'NONE', #498, 0.06499999999999998800 ) ;
#948 = FACE_OUTER_BOUND ( 'NONE', #16, .T. ) ;
#949 = FACE_OUTER_BOUND ( 'NONE', #14, .T. ) ;
#950 = FACE_OUTER_BOUND ( 'NONE', #1141, .T. ) ;
#951 = CYLINDRICAL_SURFACE ( 'NONE', #501, 0.03500000000000000300 ) ;
#952 = FACE_OUTER_BOUND ( 'NONE', #157, .T. ) ;
#953 = FACE_OUTER_BOUND ( 'NONE', #12, .T. ) ;
#954 = FACE_OUTER_BOUND ( 'NONE', #11, .T. ) ;
#955 = FACE_OUTER_BOUND ( 'NONE', #1139, .T. ) ;
#956 = FACE_OUTER_BOUND ( 'NONE', #1143, .T. ) ;
#957 = FACE_OUTER_BOUND ( 'NONE', #9, .T. ) ;
#958 = CYLINDRICAL_SURFACE ( 'NONE', #507, 0.1249999999999999000 ) ;
#959 = FACE_OUTER_BOUND ( 'NONE', #18, .T. ) ;
#960 = CYLINDRICAL_SURFACE ( 'NONE', #508, 0.1249999999999999000 ) ;
#961 = FACE_OUTER_BOUND ( 'NONE', #7, .T. ) ;
#962 = CYLINDRICAL_SURFACE ( 'NONE', #509, 0.1250000000000000300 ) ;
#963 = VECTOR ( 'NONE', #1085, 39.37007874015748100 ) ;
#964 = CYLINDRICAL_SURFACE ( 'NONE', #510, 0.1250000000000000300 ) ;
#965 = FACE_OUTER_BOUND ( 'NONE', #3, .T. ) ;
#966 = FACE_OUTER_BOUND ( 'NONE', #10, .T. ) ;
#967 = FACE_OUTER_BOUND ( 'NONE', #1, .T. ) ;
#968 = FACE_OUTER_BOUND ( 'NONE', #158, .T. ) ;
#969 = FACE_OUTER_BOUND ( 'NONE', #4, .T. ) ;
#970 = FACE_OUTER_BOUND ( 'NONE', #213, .T. ) ;
#971 = LINE ( 'NONE', #1083, #963 ) ;
#972 = FACE_OUTER_BOUND ( 'NONE', #214, .T. ) ;
#973 = LINE ( 'NONE', #1079, #976 ) ;
#974 = CYLINDRICAL_SURFACE ( 'NONE', #520, 0.06499999999999998800 ) ;
#975 = SHAPE_DEFINITION_REPRESENTATION ( #1018, #1144 ) ;
#976 = VECTOR ( 'NONE', #1078, 39.37007874015748100 ) ;
#977 = LENGTH_MEASURE_WITH_UNIT ( LENGTH_MEASURE( 0.02539999999999999900 ), #1077 );
#978 = ORGANIZATION ( 'UNSPECIFIED', 'UNSPECIFIED', '' ) ;
#979 = PERSON_AND_ORGANIZATION ( #1016, #978 ) ;
#980 = PERSON_AND_ORGANIZATION ( #1016, #978 ) ;
#981 = APPROVAL_PERSON_ORGANIZATION ( #980, #525, #1059 ) ;
#982 = COORDINATED_UNIVERSAL_TIME_OFFSET ( 5, 0, .BEHIND. ) ;
#983 = LOCAL_TIME ( 19, 40, 26.00000000000000000, #982 ) ;
#984 = CALENDAR_DATE ( 2014, 3, 4 ) ;
#985 = DATE_AND_TIME ( #984, #983 ) ;
#986 = APPROVAL_DATE_TIME ( #985, #525 ) ;
#987 = PERSON_AND_ORGANIZATION ( #1016, #978 ) ;
#988 = COORDINATED_UNIVERSAL_TIME_OFFSET ( 5, 0, .BEHIND. ) ;
#989 = LOCAL_TIME ( 19, 40, 26.00000000000000000, #988 ) ;
#990 = CALENDAR_DATE ( 2014, 3, 4 ) ;
#991 = DATE_AND_TIME ( #990, #989 ) ;
#992 = PERSON_AND_ORGANIZATION ( #1016, #978 ) ;
#993 = APPROVAL_PERSON_ORGANIZATION ( #992, #530, #1055 ) ;
#994 = COORDINATED_UNIVERSAL_TIME_OFFSET ( 5, 0, .BEHIND. ) ;
#995 = LOCAL_TIME ( 19, 40, 26.00000000000000000, #994 ) ;
#996 = CALENDAR_DATE ( 2014, 3, 4 ) ;
#997 = DATE_AND_TIME ( #996, #995 ) ;
#998 = APPROVAL_DATE_TIME ( #997, #530 ) ;
#999 = PERSON_AND_ORGANIZATION ( #1016, #978 ) ;
#1000 = PERSON_AND_ORGANIZATION ( #1016, #978 ) ;
#1001 = PERSON_AND_ORGANIZATION ( #1016, #978 ) ;
#1002 = COORDINATED_UNIVERSAL_TIME_OFFSET ( 5, 0, .BEHIND. ) ;
#1003 = LOCAL_TIME ( 19, 40, 26.00000000000000000, #1002 ) ;
#1004 = CALENDAR_DATE ( 2014, 3, 4 ) ;
#1005 = DATE_AND_TIME ( #1004, #1003 ) ;
#1006 = PERSON_AND_ORGANIZATION ( #1016, #978 ) ;
#1007 = APPROVAL_PERSON_ORGANIZATION ( #1006, #537, #1047 ) ;
#1008 = COORDINATED_UNIVERSAL_TIME_OFFSET ( 5, 0, .BEHIND. ) ;
#1009 = LOCAL_TIME ( 19, 40, 26.00000000000000000, #1008 ) ;
#1010 = CALENDAR_DATE ( 2014, 3, 4 ) ;
#1011 = DATE_AND_TIME ( #1010, #1009 ) ;
#1012 = APPROVAL_DATE_TIME ( #1011, #537 ) ;
#1013 = ORIENTED_EDGE ( 'NONE', *, *, #398, .F. ) ;
#1014 = ORIENTED_EDGE ( 'NONE', *, *, #404, .F. ) ;
#1015 = PRODUCT ( 'ARG Wing Reinforcement Grown', 'ARG Wing Reinforcement Grown', '', ( #1066 ) ) ;
#1016 = PERSON ( 'UNSPECIFIED', 'UNSPECIFIED', 'UNSPECIFIED', ('UNSPECIFIED'), ('UNSPECIFIED'), ('UNSPECIFIED') ) ;
#1017 = DESIGN_CONTEXT ( 'detailed design', #1063, 'design' ) ;
#1018 = PRODUCT_DEFINITION_SHAPE ( 'NONE', 'NONE',  #524 ) ;
#1019 = ORIENTED_EDGE ( 'NONE', *, *, #397, .T. ) ;
#1020 = ORIENTED_EDGE ( 'NONE', *, *, #382, .F. ) ;
#1021 = ORIENTED_EDGE ( 'NONE', *, *, #455, .T. ) ;
#1022 = ORIENTED_EDGE ( 'NONE', *, *, #433, .F. ) ;
#1023 = ORIENTED_EDGE ( 'NONE', *, *, #456, .T. ) ;
#1024 = ORIENTED_EDGE ( 'NONE', *, *, #428, .F. ) ;
#1025 = ORIENTED_EDGE ( 'NONE', *, *, #434, .F. ) ;
#1026 = ORIENTED_EDGE ( 'NONE', *, *, #435, .F. ) ;
#1027 = ORIENTED_EDGE ( 'NONE', *, *, #459, .F. ) ;
#1028 = ORIENTED_EDGE ( 'NONE', *, *, #436, .F. ) ;
#1029 = ORIENTED_EDGE ( 'NONE', *, *, #458, .F. ) ;
#1030 = ORIENTED_EDGE ( 'NONE', *, *, #421, .F. ) ;
#1031 = ORIENTED_EDGE ( 'NONE', *, *, #460, .F. ) ;
#1032 = ORIENTED_EDGE ( 'NONE', *, *, #438, .F. ) ;
#1033 = ORIENTED_EDGE ( 'NONE', *, *, #457, .F. ) ;
#1034 = ORIENTED_EDGE ( 'NONE', *, *, #420, .F. ) ;
#1035 = ORIENTED_EDGE ( 'NONE', *, *, #437, .T. ) ;
#1036 = ORIENTED_EDGE ( 'NONE', *, *, #399, .F. ) ;
#1037 = ORIENTED_EDGE ( 'NONE', *, *, #402, .F. ) ;
#1038 = VERTEX_POINT ( 'NONE', #1195 ) ;
#1039 = PLANE ( 'NONE',  #511 ) ;
#1040 = CARTESIAN_POINT ( 'NONE',  ( -0.03500000000000000300, 0.03500000000000000300, -1.491291035056853300 ) ) ;
#1041 = DIRECTION ( 'NONE',  ( 0.0000000000000000000, 0.0000000000000000000, 1.000000000000000000 ) ) ;
#1042 = CARTESIAN_POINT ( 'NONE',  ( -0.03500000000000000300, -0.04687499999999989600, -1.491291035056853300 ) ) ;
#1043 = PLANE ( 'NONE',  #516 ) ;
#1044 = DIRECTION ( 'NONE',  ( 0.9961946980917454300, 0.0000000000000000000, -0.08715574274765836000 ) ) ;
#1045 = DIRECTION ( 'NONE',  ( 0.08715574274765837400, 0.0000000000000000000, 0.9961946980917455500 ) ) ;
#1046 = CARTESIAN_POINT ( 'NONE',  ( -0.03500000000000000300, -0.03500000000000000300, -1.491291035056853300 ) ) ;
#1047 = APPROVAL_ROLE ( '' ) ;
#1048 = APPROVAL_STATUS ( 'not_yet_approved' ) ;
#1049 = DATE_TIME_ROLE ( 'classification_date' ) ;
#1050 = PERSON_AND_ORGANIZATION_ROLE ( 'classification_officer' ) ;
#1051 = PLANE ( 'NONE',  #515 ) ;
#1052 = SECURITY_CLASSIFICATION_LEVEL ( 'unclassified' ) ;
#1053 = PERSON_AND_ORGANIZATION_ROLE ( 'design_supplier' ) ;
#1054 = PERSON_AND_ORGANIZATION_ROLE ( 'creator' ) ;
#1055 = APPROVAL_ROLE ( '' ) ;
#1056 = APPROVAL_STATUS ( 'not_yet_approved' ) ;
#1057 = DATE_TIME_ROLE ( 'creation_date' ) ;
#1058 = PERSON_AND_ORGANIZATION_ROLE ( 'creator' ) ;
#1059 = APPROVAL_ROLE ( '' ) ;
#1060 = APPROVAL_STATUS ( 'not_yet_approved' ) ;
#1061 = DIRECTION ( 'NONE',  ( -0.9993908270190959800, -0.03489949670249420400, 0.0000000000000000000 ) ) ;
#1062 = APPLICATION_PROTOCOL_DEFINITION ( 'international standard', 'config_control_design', 1994, #1063 ) ;
#1063 = APPLICATION_CONTEXT ( 'configuration controlled 3d designs of mechanical parts and assemblies' ) ;
#1064 = DIRECTION ( 'NONE',  ( -0.03489949670249420400, 0.9993908270190959800, 0.0000000000000000000 ) ) ;
#1065 = PERSON_AND_ORGANIZATION_ROLE ( 'design_owner' ) ;
#1066 = MECHANICAL_CONTEXT ( 'NONE', #1073, 'mechanical' ) ;
#1067 = APPLICATION_PROTOCOL_DEFINITION ( 'international standard', 'config_control_design', 1994, #1073 ) ;
#1068 = DIRECTION ( 'NONE',  ( 1.000000000000000000, 0.0000000000000000000, 0.0000000000000000000 ) ) ;
#1069 = CARTESIAN_POINT ( 'NONE',  ( 0.0000000000000000000, 0.0000000000000000000, -1.000000000000000000 ) ) ;
#1070 = DIRECTION ( 'NONE',  ( 0.0000000000000000000, 0.0000000000000000000, 1.000000000000000000 ) ) ;
#1071 = CARTESIAN_POINT ( 'NONE',  ( 0.0000000000000000000, 0.0000000000000000000, 0.0000000000000000000 ) ) ;
#1072 = PLANE ( 'NONE',  #514 ) ;
#1073 = APPLICATION_CONTEXT ( 'configuration controlled 3d designs of mechanical parts and assemblies' ) ;
#1074 =( NAMED_UNIT ( * ) SI_UNIT ( $, .STERADIAN. ) SOLID_ANGLE_UNIT ( ) );
#1075 =( NAMED_UNIT ( * ) PLANE_ANGLE_UNIT ( ) SI_UNIT ( $, .RADIAN. ) );
#1076 =( CONVERSION_BASED_UNIT ( 'INCH', #977 ) LENGTH_UNIT ( ) NAMED_UNIT ( #1299 ) );
#1077 =( LENGTH_UNIT ( ) NAMED_UNIT ( * ) SI_UNIT ( $, .METRE. ) );
#1078 = DIRECTION ( 'NONE',  ( -0.0000000000000000000, 1.000000000000000000, -0.0000000000000000000 ) ) ;
#1079 = CARTESIAN_POINT ( 'NONE',  ( -0.1349999999999999800, -0.07928095787645629600, -0.07812500000000000000 ) ) ;
#1080 = DIRECTION ( 'NONE',  ( -0.9659258262890645400, 0.2588190451025345600, 0.0000000000000000000 ) ) ;
#1081 = DIRECTION ( 'NONE',  ( 0.2588190451025346200, 0.9659258262890646500, -0.0000000000000000000 ) ) ;
#1082 = CARTESIAN_POINT ( 'NONE',  ( 0.1519421554585643800, 0.0000000000000000000, 1.736706783885682000 ) ) ;
#1083 = CARTESIAN_POINT ( 'NONE',  ( -0.1349999999999999800, -0.07928095787645629600, 0.07812500000000000000 ) ) ;
#1084 = PLANE ( 'NONE',  #513 ) ;
#1085 = DIRECTION ( 'NONE',  ( -0.0000000000000000000, 1.000000000000000000, -0.0000000000000000000 ) ) ;
#1086 = DIRECTION ( 'NONE',  ( -3.594536833768800100E-016, -1.000000000000000000, 0.0000000000000000000 ) ) ;
#1087 = DIRECTION ( 'NONE',  ( -1.000000000000000000, 3.594536833768800100E-016, 0.0000000000000000000 ) ) ;
#1088 = PLANE ( 'NONE',  #521 ) ;
#1089 = CARTESIAN_POINT ( 'NONE',  ( 0.0000000000000000000, 0.0000000000000000000, -1.491291035056853300 ) ) ;
#1090 = DIRECTION ( 'NONE',  ( 0.0000000000000000000, 0.0000000000000000000, 1.000000000000000000 ) ) ;
#1091 = DIRECTION ( 'NONE',  ( 2.875629467015044100E-015, -1.000000000000000000, 0.0000000000000000000 ) ) ;
#1092 = DIRECTION ( 'NONE',  ( -1.000000000000000000, -2.875629467015044100E-015, 0.0000000000000000000 ) ) ;
#1093 = DIRECTION ( 'NONE',  ( -1.000000000000000000, -5.145604097655288900E-016, 0.0000000000000000000 ) ) ;
#1094 = DIRECTION ( 'NONE',  ( -5.145604097655288900E-016, 1.000000000000000000, 0.0000000000000000000 ) ) ;
#1095 = CARTESIAN_POINT ( 'NONE',  ( -0.04473984803250685700, 0.07928095787645769700, -1.491291035056853300 ) ) ;
#1096 = CARTESIAN_POINT ( 'NONE',  ( -0.03500000000000000300, -0.03500000000000000300, -1.491291035056853300 ) ) ;
#1097 = PLANE ( 'NONE',  #519 ) ;
#1098 = DIRECTION ( 'NONE',  ( -3.594536833768800100E-016, -1.000000000000000000, 0.0000000000000000000 ) ) ;
#1099 = DIRECTION ( 'NONE',  ( -1.000000000000000000, 3.594536833768800100E-016, 0.0000000000000000000 ) ) ;
#1100 = DIRECTION ( 'NONE',  ( 1.000000000000000000, 0.0000000000000000000, 0.0000000000000000000 ) ) ;
#1101 = PLANE ( 'NONE',  #517 ) ;
#1102 = DIRECTION ( 'NONE',  ( 1.000000000000000000, 0.0000000000000000000, -0.0000000000000000000 ) ) ;
#1103 = PLANE ( 'NONE',  #512 ) ;
#1104 = DIRECTION ( 'NONE',  ( -0.9659258262890645400, 0.2588190451025345600, 0.0000000000000000000 ) ) ;
#1105 = DIRECTION ( 'NONE',  ( 0.2588190451025346200, 0.9659258262890646500, -0.0000000000000000000 ) ) ;
#1106 = CARTESIAN_POINT ( 'NONE',  ( -0.04473984803250685700, 0.07928095787645769700, -1.491291035056853300 ) ) ;
#1107 = CARTESIAN_POINT ( 'NONE',  ( -0.04473984803250685700, 0.07928095787645769700, -1.491291035056853300 ) ) ;
#1108 = VERTEX_POINT ( 'NONE', #1192 ) ;
#1109 = ORIENTED_EDGE ( 'NONE', *, *, #383, .F. ) ;
#1110 = ORIENTED_EDGE ( 'NONE', *, *, #412, .F. ) ;
#1111 = ORIENTED_EDGE ( 'NONE', *, *, #411, .F. ) ;
#1112 = ORIENTED_EDGE ( 'NONE', *, *, #412, .T. ) ;
#1113 = ORIENTED_EDGE ( 'NONE', *, *, #410, .F. ) ;
#1114 = ORIENTED_EDGE ( 'NONE', *, *, #409, .F. ) ;
#1115 = ORIENTED_EDGE ( 'NONE', *, *, #408, .F. ) ;
#1116 = ORIENTED_EDGE ( 'NONE', *, *, #406, .F. ) ;
#1117 = ORIENTED_EDGE ( 'NONE', *, *, #405, .T. ) ;
#1118 = ORIENTED_EDGE ( 'NONE', *, *, #407, .F. ) ;
#1119 = ORIENTED_EDGE ( 'NONE', *, *, #455, .F. ) ;
#1120 = ORIENTED_EDGE ( 'NONE', *, *, #400, .F. ) ;
#1121 = ORIENTED_EDGE ( 'NONE', *, *, #436, .T. ) ;
#1122 = ORIENTED_EDGE ( 'NONE', *, *, #401, .F. ) ;
#1123 = ORIENTED_EDGE ( 'NONE', *, *, #403, .T. ) ;
#1124 = ORIENTED_EDGE ( 'NONE', *, *, #395, .F. ) ;
#1125 = ORIENTED_EDGE ( 'NONE', *, *, #399, .T. ) ;
#1126 = ORIENTED_EDGE ( 'NONE', *, *, #415, .F. ) ;
#1127 = ORIENTED_EDGE ( 'NONE', *, *, #393, .F. ) ;
#1128 = ORIENTED_EDGE ( 'NONE', *, *, #421, .T. ) ;
#1129 = ORIENTED_EDGE ( 'NONE', *, *, #413, .F. ) ;
#1130 = ORIENTED_EDGE ( 'NONE', *, *, #424, .T. ) ;
#1131 = ORIENTED_EDGE ( 'NONE', *, *, #391, .T. ) ;
#1132 = ORIENTED_EDGE ( 'NONE', *, *, #396, .F. ) ;
#1133 = ORIENTED_EDGE ( 'NONE', *, *, #392, .F. ) ;
#1134 = ORIENTED_EDGE ( 'NONE', *, *, #437, .F. ) ;
#1135 = ORIENTED_EDGE ( 'NONE', *, *, #394, .F. ) ;
#1136 = ORIENTED_EDGE ( 'NONE', *, *, #433, .T. ) ;
#1137 = EDGE_LOOP ( 'NONE', ( #700, #701, #702, #703, #704, #705, #706, #707, #708, #709, #710, #711, #712, #713, #714, #715 ) ) ;
#1138 = CLOSED_SHELL ( 'NONE', ( #1270, #1271, #1272, #1297, #1264, #1263, #1298, #1269, #1274, #1273, #1290, #1289, #1276, #1275, #1278, #1277, #1296, #1295, #1280, #1279, #1282, #1281, #1284, #1283, #1292, #1291, #1294, #1293, #1268, #1267, #1266, #1265, #1288, #1287, #1286, #1285 ) ) ;
#1139 = EDGE_LOOP ( 'NONE', ( #736, #737, #738, #739 ) ) ;
#1140 = EDGE_LOOP ( 'NONE', ( #696, #697, #698, #699 ) ) ;
#1141 = EDGE_LOOP ( 'NONE', ( #732, #733, #734, #735 ) ) ;
#1142 = EDGE_LOOP ( 'NONE', ( #692, #693, #694, #695 ) ) ;
#1143 = EDGE_LOOP ( 'NONE', ( #740, #741, #742, #743 ) ) ;
#1144 = ADVANCED_BREP_SHAPE_REPRESENTATION ( 'ARG Wing Reinforcement Grown', ( #1153, #522 ), #518 ) ;
#1145 = UNCERTAINTY_MEASURE_WITH_UNIT (LENGTH_MEASURE( 1.000000000000000100E-005 ), #1076, 'distance_accuracy_value', 'NONE');
#1146 =( BOUNDED_CURVE ( )  B_SPLINE_CURVE ( 3, ( #82, #86, #85, #80 ),
 .UNSPECIFIED., .F., .F. ) 
 B_SPLINE_CURVE_WITH_KNOTS ( ( 4, 4 ),
 ( 4.712388980384689700, 6.283185307179586200 ),
 .UNSPECIFIED. ) 
 CURVE ( )  GEOMETRIC_REPRESENTATION_ITEM ( )  RATIONAL_B_SPLINE_CURVE ( ( 1.000000000000000000, 0.8047378541243649400, 0.8047378541243649400, 1.000000000000000000 ) ) 
 REPRESENTATION_ITEM ( '' )  );
#1147 =( BOUNDED_CURVE ( )  B_SPLINE_CURVE ( 3, ( #87, #92, #91, #84 ),
 .UNSPECIFIED., .F., .F. ) 
 B_SPLINE_CURVE_WITH_KNOTS ( ( 4, 4 ),
 ( 0.0000000000000000000, 1.658062789394612700 ),
 .UNSPECIFIED. ) 
 CURVE ( )  GEOMETRIC_REPRESENTATION_ITEM ( )  RATIONAL_B_SPLINE_CURVE ( ( 1.000000000000000000, 0.7837268050771069000, 0.7837268050771069000, 1.000000000000000000 ) ) 
 REPRESENTATION_ITEM ( '' )  );
#1148 =( BOUNDED_CURVE ( )  B_SPLINE_CURVE ( 3, ( #102, #101, #96, #95 ),
 .UNSPECIFIED., .F., .F. ) 
 B_SPLINE_CURVE_WITH_KNOTS ( ( 4, 4 ),
 ( 4.712388980384689700, 6.283185307179586200 ),
 .UNSPECIFIED. ) 
 CURVE ( )  GEOMETRIC_REPRESENTATION_ITEM ( )  RATIONAL_B_SPLINE_CURVE ( ( 1.000000000000000000, 0.8047378541243649400, 0.8047378541243649400, 1.000000000000000000 ) ) 
 REPRESENTATION_ITEM ( '' )  );
#1149 =( BOUNDED_CURVE ( )  B_SPLINE_CURVE ( 3, ( #126, #144, #143, #124 ),
 .UNSPECIFIED., .F., .F. ) 
 B_SPLINE_CURVE_WITH_KNOTS ( ( 4, 4 ),
 ( 1.570796326794896800, 4.712388980384689700 ),
 .UNSPECIFIED. ) 
 CURVE ( )  GEOMETRIC_REPRESENTATION_ITEM ( )  RATIONAL_B_SPLINE_CURVE ( ( 1.000000000000000000, 0.3333333333333333700, 0.3333333333333333700, 1.000000000000000000 ) ) 
 REPRESENTATION_ITEM ( '' )  );
#1150 =( BOUNDED_CURVE ( )  B_SPLINE_CURVE ( 3, ( #220, #219, #25, #152 ),
 .UNSPECIFIED., .F., .F. ) 
 B_SPLINE_CURVE_WITH_KNOTS ( ( 4, 4 ),
 ( 4.974188368183838800, 6.283185307179586200 ),
 .UNSPECIFIED. ) 
 CURVE ( )  GEOMETRIC_REPRESENTATION_ITEM ( )  RATIONAL_B_SPLINE_CURVE ( ( 1.000000000000000000, 0.8622355601941565900, 0.8622355601941565900, 1.000000000000000000 ) ) 
 REPRESENTATION_ITEM ( '' )  );
#1151 =( BOUNDED_CURVE ( )  B_SPLINE_CURVE ( 3, ( #291, #304, #302, #290 ),
 .UNSPECIFIED., .F., .F. ) 
 B_SPLINE_CURVE_WITH_KNOTS ( ( 4, 4 ),
 ( 0.0000000000000000000, 1.308996938995746500 ),
 .UNSPECIFIED. ) 
 CURVE ( )  GEOMETRIC_REPRESENTATION_ITEM ( )  RATIONAL_B_SPLINE_CURVE ( ( 1.000000000000000000, 0.8622355601941569200, 0.8622355601941569200, 1.000000000000000000 ) ) 
 REPRESENTATION_ITEM ( '' )  );
#1152 =( BOUNDED_CURVE ( )  B_SPLINE_CURVE ( 3, ( #303, #312, #310, #301 ),
 .UNSPECIFIED., .F., .F. ) 
 B_SPLINE_CURVE_WITH_KNOTS ( ( 4, 4 ),
 ( 3.141592653589793100, 4.712388980384689700 ),
 .UNSPECIFIED. ) 
 CURVE ( )  GEOMETRIC_REPRESENTATION_ITEM ( )  RATIONAL_B_SPLINE_CURVE ( ( 1.000000000000000000, 0.8047378541243649400, 0.8047378541243649400, 1.000000000000000000 ) ) 
 REPRESENTATION_ITEM ( '' )  );
#1153 = MANIFOLD_SOLID_BREP ( 'Fillet4', #1138 ) ;
#1154 =( BOUNDED_CURVE ( )  B_SPLINE_CURVE ( 3, ( #185, #191, #195, #183 ),
 .UNSPECIFIED., .F., .F. ) 
 B_SPLINE_CURVE_WITH_KNOTS ( ( 4, 4 ),
 ( 0.0000000000000000000, 1.570796326794896800 ),
 .UNSPECIFIED. ) 
 CURVE ( )  GEOMETRIC_REPRESENTATION_ITEM ( )  RATIONAL_B_SPLINE_CURVE ( ( 1.000000000000000000, 0.8047378541243649400, 0.8047378541243649400, 1.000000000000000000 ) ) 
 REPRESENTATION_ITEM ( '' )  );
#1155 =( BOUNDED_CURVE ( )  B_SPLINE_CURVE ( 3, ( #318, #325, #331, #317 ),
 .UNSPECIFIED., .F., .F. ) 
 B_SPLINE_CURVE_WITH_KNOTS ( ( 4, 4 ),
 ( 1.483529864195179500, 3.141592653589793100 ),
 .UNSPECIFIED. ) 
 CURVE ( )  GEOMETRIC_REPRESENTATION_ITEM ( )  RATIONAL_B_SPLINE_CURVE ( ( 1.000000000000000000, 0.7837268050771065700, 0.7837268050771065700, 1.000000000000000000 ) ) 
 REPRESENTATION_ITEM ( '' )  );
#1156 =( BOUNDED_CURVE ( )  B_SPLINE_CURVE ( 3, ( #311, #315, #319, #309 ),
 .UNSPECIFIED., .F., .F. ) 
 B_SPLINE_CURVE_WITH_KNOTS ( ( 4, 4 ),
 ( 4.712388980384689700, 7.853981633974482800 ),
 .UNSPECIFIED. ) 
 CURVE ( )  GEOMETRIC_REPRESENTATION_ITEM ( )  RATIONAL_B_SPLINE_CURVE ( ( 1.000000000000000000, 0.3333333333333333700, 0.3333333333333333700, 1.000000000000000000 ) ) 
 REPRESENTATION_ITEM ( '' )  );
#1157 = DIRECTION ( 'NONE',  ( -1.000000000000000000, -2.875629467015044100E-015, 0.0000000000000000000 ) ) ;
#1158 = CARTESIAN_POINT ( 'NONE',  ( -0.4000000000000000200, 0.06687500000000000400, -1.491291035056853300 ) ) ;
#1159 = PLANE ( 'NONE',  #503 ) ;
#1160 = DIRECTION ( 'NONE',  ( 0.0000000000000000000, 0.0000000000000000000, 1.000000000000000000 ) ) ;
#1161 = DIRECTION ( 'NONE',  ( 0.0000000000000000000, 1.000000000000000000, -0.0000000000000000000 ) ) ;
#1162 = CARTESIAN_POINT ( 'NONE',  ( 4.286263797015736000E-018, 0.03500000000000000300, -1.491291035056853300 ) ) ;
#1163 = CARTESIAN_POINT ( 'NONE',  ( -0.2750000000000000200, 0.0000000000000000000, -0.8750000000000000000 ) ) ;
#1164 = CARTESIAN_POINT ( 'NONE',  ( 0.0000000000000000000, 0.0000000000000000000, -1.491291035056853300 ) ) ;
#1165 = DIRECTION ( 'NONE',  ( 1.000000000000000000, 0.0000000000000000000, 0.0000000000000000000 ) ) ;
#1166 = DIRECTION ( 'NONE',  ( 0.0000000000000000000, 0.0000000000000000000, 1.000000000000000000 ) ) ;
#1167 = CARTESIAN_POINT ( 'NONE',  ( 0.0000000000000000000, 0.0000000000000000000, -1.491291035056853300 ) ) ;
#1168 = DIRECTION ( 'NONE',  ( 0.0000000000000000000, 0.0000000000000000000, 1.000000000000000000 ) ) ;
#1169 = DIRECTION ( 'NONE',  ( 0.0000000000000000000, 0.0000000000000000000, 1.000000000000000000 ) ) ;
#1170 = DIRECTION ( 'NONE',  ( 0.0000000000000000000, 1.000000000000000000, -0.0000000000000000000 ) ) ;
#1171 = DIRECTION ( 'NONE',  ( 1.000000000000000000, 0.0000000000000000000, 0.0000000000000000000 ) ) ;
#1172 = DIRECTION ( 'NONE',  ( 1.000000000000000000, 0.0000000000000000000, 0.0000000000000000000 ) ) ;
#1173 = PLANE ( 'NONE',  #491 ) ;
#1174 = CARTESIAN_POINT ( 'NONE',  ( -0.1349999999999999800, -0.07928095787645629600, 0.0000000000000000000 ) ) ;
#1175 = CARTESIAN_POINT ( 'NONE',  ( 4.286263797015736000E-018, -0.03500000000000000300, -1.491291035056853300 ) ) ;
#1176 = DIRECTION ( 'NONE',  ( -0.0000000000000000000, 1.000000000000000000, -0.0000000000000000000 ) ) ;
#1177 = CARTESIAN_POINT ( 'NONE',  ( -0.1349999999999999800, -0.07928095787645629600, 0.0000000000000000000 ) ) ;
#1178 = DIRECTION ( 'NONE',  ( -0.0000000000000000000, 1.000000000000000000, -0.0000000000000000000 ) ) ;
#1179 = DIRECTION ( 'NONE',  ( -1.000000000000000000, 0.0000000000000000000, -0.0000000000000000000 ) ) ;
#1180 = DIRECTION ( 'NONE',  ( 0.0000000000000000000, 0.0000000000000000000, -1.000000000000000000 ) ) ;
#1181 = DIRECTION ( 'NONE',  ( 0.0000000000000000000, 0.0000000000000000000, 1.000000000000000000 ) ) ;
#1182 = PLANE ( 'NONE',  #488 ) ;
#1183 = DIRECTION ( 'NONE',  ( 1.000000000000000000, 0.0000000000000000000, 0.0000000000000000000 ) ) ;
#1184 = DIRECTION ( 'NONE',  ( -0.0000000000000000000, 0.0000000000000000000, 1.000000000000000000 ) ) ;
#1185 = DIRECTION ( 'NONE',  ( 0.0000000000000000000, 0.0000000000000000000, 1.000000000000000000 ) ) ;
#1186 = CARTESIAN_POINT ( 'NONE',  ( -0.1349999999999999800, -0.07928095787645629600, -0.07812500000000000000 ) ) ;
#1187 = PLANE ( 'NONE',  #487 ) ;
#1188 = CARTESIAN_POINT ( 'NONE',  ( 0.0000000000000000000, 0.0000000000000000000, -1.491291035056853300 ) ) ;
#1189 = DIRECTION ( 'NONE',  ( 0.0000000000000000000, 0.0000000000000000000, 1.000000000000000000 ) ) ;
#1190 = DIRECTION ( 'NONE',  ( 0.9659258262890699800, 0.2588190451025140200, 0.0000000000000000000 ) ) ;
#1191 = DIRECTION ( 'NONE',  ( 1.000000000000000000, 0.0000000000000000000, 0.0000000000000000000 ) ) ;
#1192 = CARTESIAN_POINT ( 'NONE',  ( 0.01682323793166387900, -0.06278517870878942700, 0.07812500000000013900 ) ) ;
#1193 = DIRECTION ( 'NONE',  ( 0.2588190451025140800, -0.9659258262890700900, 0.0000000000000000000 ) ) ;
#1194 = CARTESIAN_POINT ( 'NONE',  ( -0.04473984803250681500, -0.07928095787645629600, -1.491291035056853300 ) ) ;
#1195 = CARTESIAN_POINT ( 'NONE',  ( 0.03500000000000000300, 0.0000000000000000000, 1.746937896776592700 ) ) ;
#1196 = PLANE ( 'NONE',  #485 ) ;
#1197 = CARTESIAN_POINT ( 'NONE',  ( -0.1349999999999999800, -0.07928095787645629600, 0.07812500000000000000 ) ) ;
#1198 = CARTESIAN_POINT ( 'NONE',  ( -0.04473984803250685700, 0.07928095787645769700, 1.753914229510717300 ) ) ;
#1199 = CARTESIAN_POINT ( 'NONE',  ( -0.2750000000000001300, 0.07124009618646762200, -1.000000000000000000 ) ) ;
#1200 = CARTESIAN_POINT ( 'NONE',  ( -0.2641055321565428100, 0.07162053938676418700, 1.773106240038179200 ) ) ;
#1201 = CARTESIAN_POINT ( 'NONE',  ( -0.1350000000000000100, 0.07612900391531132700, 0.07812500000000006900 ) ) ;
#1202 = CARTESIAN_POINT ( 'NONE',  ( -0.04473984803250685700, 0.07928095787645769700, 0.07812499999999986100 ) ) ;
#1203 = CARTESIAN_POINT ( 'NONE',  ( -0.4000000000000000200, 0.06687500000000000400, 1.648581902776710600 ) ) ;
#1204 = CARTESIAN_POINT ( 'NONE',  ( -0.1349999999999999800, 0.04687499999999987500, 0.07812500000000000000 ) ) ;
#1205 = CARTESIAN_POINT ( 'NONE',  ( -0.2750000000000000200, 0.04687499999999984700, -1.000000000000000000 ) ) ;
#1206 = CARTESIAN_POINT ( 'NONE',  ( -0.1349999999999999800, 0.04687499999999987500, -0.07812500000000000000 ) ) ;
#1207 = CARTESIAN_POINT ( 'NONE',  ( -0.4000000000000000200, 0.06687500000000000400, -0.8750000000000000000 ) ) ;
#1208 = CARTESIAN_POINT ( 'NONE',  ( -0.2641055321565427500, 0.04687499999999986100, 1.773106240038179000 ) ) ;
#1209 = CARTESIAN_POINT ( 'NONE',  ( -0.03500000000000003800, 0.04687499999999987500, 1.753062103223407500 ) ) ;
#1210 = CARTESIAN_POINT ( 'NONE',  ( -0.2750000000000000200, 0.0000000000000000000, -0.8750000000000000000 ) ) ;
#1211 = DIRECTION ( 'NONE',  ( 0.0000000000000000000, -1.000000000000000000, 0.0000000000000000000 ) ) ;
#1212 = DIRECTION ( 'NONE',  ( 0.0000000000000000000, 0.0000000000000000000, -1.000000000000000000 ) ) ;
#1213 = DIRECTION ( 'NONE',  ( 0.0000000000000000000, -1.000000000000000000, 0.0000000000000000000 ) ) ;
#1214 = CARTESIAN_POINT ( 'NONE',  ( -0.2750000000000000200, 0.0000000000000000000, 1.648581902776710600 ) ) ;
#1215 = DIRECTION ( 'NONE',  ( 0.0000000000000000000, -1.000000000000000000, 0.0000000000000000000 ) ) ;
#1216 = DIRECTION ( 'NONE',  ( 0.0000000000000000000, 0.0000000000000000000, -1.000000000000000000 ) ) ;
#1217 = CARTESIAN_POINT ( 'NONE',  ( -0.2750000000000000200, 0.0000000000000000000, 1.648581902776710600 ) ) ;
#1218 = DIRECTION ( 'NONE',  ( 0.0000000000000000000, -1.000000000000000000, 0.0000000000000000000 ) ) ;
#1219 = DIRECTION ( 'NONE',  ( 1.000000000000000000, 9.355643813918708300E-017, 0.0000000000000000000 ) ) ;
#1220 = DIRECTION ( 'NONE',  ( 9.355643813918708300E-017, -1.000000000000000000, 0.0000000000000000000 ) ) ;
#1221 = DIRECTION ( 'NONE',  ( 0.0000000000000000000, 0.0000000000000000000, -1.000000000000000000 ) ) ;
#1222 = PLANE ( 'NONE',  #506 ) ;
#1223 = DIRECTION ( 'NONE',  ( 0.0000000000000000000, 0.0000000000000000000, 1.000000000000000000 ) ) ;
#1224 = DIRECTION ( 'NONE',  ( -1.000000000000000000, 0.0000000000000000000, 0.0000000000000000000 ) ) ;
#1225 = DIRECTION ( 'NONE',  ( 0.0000000000000000000, 0.0000000000000000000, -1.000000000000000000 ) ) ;
#1226 = PLANE ( 'NONE',  #505 ) ;
#1227 = DIRECTION ( 'NONE',  ( 0.0000000000000000000, -0.0000000000000000000, -1.000000000000000000 ) ) ;
#1228 = DIRECTION ( 'NONE',  ( 0.0000000000000000000, -1.000000000000000000, 0.0000000000000000000 ) ) ;
#1229 = CARTESIAN_POINT ( 'NONE',  ( -0.4000000000000000200, 0.04687499999999984000, -1.491291035056853300 ) ) ;
#1230 = PLANE ( 'NONE',  #504 ) ;
#1231 = DIRECTION ( 'NONE',  ( 2.875629467015044100E-015, -1.000000000000000000, 0.0000000000000000000 ) ) ;
#1232 = CARTESIAN_POINT ( 'NONE',  ( -0.4000000000000000200, 0.04687499999999984000, 1.648581902776710600 ) ) ;
#1233 = CARTESIAN_POINT ( 'NONE',  ( -0.03500000000000000300, 0.03500000000000000300, -1.491291035056853300 ) ) ;
#1234 = PLANE ( 'NONE',  #502 ) ;
#1235 = CARTESIAN_POINT ( 'NONE',  ( 0.0000000000000000000, 0.0000000000000000000, -1.491291035056853300 ) ) ;
#1236 = DIRECTION ( 'NONE',  ( 0.0000000000000000000, 0.0000000000000000000, 1.000000000000000000 ) ) ;
#1237 = DIRECTION ( 'NONE',  ( -0.03489949670249026900, -0.9993908270190961000, 0.0000000000000000000 ) ) ;
#1238 = CARTESIAN_POINT ( 'NONE',  ( 4.286263797015736000E-018, -0.03500000000000000300, -1.491291035056853300 ) ) ;
#1239 = DIRECTION ( 'NONE',  ( 0.9993908270190961000, -0.03489949670249026900, 0.0000000000000000000 ) ) ;
#1240 = PLANE ( 'NONE',  #500 ) ;
#1241 = DIRECTION ( 'NONE',  ( 0.0000000000000000000, 0.0000000000000000000, 1.000000000000000000 ) ) ;
#1242 = DIRECTION ( 'NONE',  ( -1.000000000000000000, 0.0000000000000000000, 0.0000000000000000000 ) ) ;
#1243 = DIRECTION ( 'NONE',  ( 1.000000000000000000, 0.0000000000000000000, 0.0000000000000000000 ) ) ;
#1244 = CARTESIAN_POINT ( 'NONE',  ( -0.4000000000000000200, -0.06687500000000000400, -1.491291035056853300 ) ) ;
#1245 = PLANE ( 'NONE',  #499 ) ;
#1246 = CARTESIAN_POINT ( 'NONE',  ( 0.0000000000000000000, 0.0000000000000000000, -1.491291035056853300 ) ) ;
#1247 = DIRECTION ( 'NONE',  ( 0.0000000000000000000, 0.0000000000000000000, 1.000000000000000000 ) ) ;
#1248 = DIRECTION ( 'NONE',  ( 0.9659258262890699800, 0.2588190451025140200, 0.0000000000000000000 ) ) ;
#1249 = DIRECTION ( 'NONE',  ( 0.2588190451025140800, -0.9659258262890700900, 0.0000000000000000000 ) ) ;
#1250 = CARTESIAN_POINT ( 'NONE',  ( -0.4000000000000000200, -0.04687500000000008300, -1.491291035056853300 ) ) ;
#1251 = DIRECTION ( 'NONE',  ( 1.000000000000000000, 0.0000000000000000000, 0.0000000000000000000 ) ) ;
#1252 = PLANE ( 'NONE',  #497 ) ;
#1253 = CARTESIAN_POINT ( 'NONE',  ( 0.0000000000000000000, 0.0000000000000000000, -1.491291035056853300 ) ) ;
#1254 = DIRECTION ( 'NONE',  ( 0.0000000000000000000, 0.0000000000000000000, 1.000000000000000000 ) ) ;
#1255 = DIRECTION ( 'NONE',  ( 0.0000000000000000000, -0.0000000000000000000, -1.000000000000000000 ) ) ;
#1256 = DIRECTION ( 'NONE',  ( 0.0000000000000000000, -1.000000000000000000, 0.0000000000000000000 ) ) ;
#1257 = CARTESIAN_POINT ( 'NONE',  ( -0.04473984803250681500, -0.07928095787645629600, -1.491291035056853300 ) ) ;
#1258 = DIRECTION ( 'NONE',  ( 1.000000000000000000, 0.0000000000000000000, 0.0000000000000000000 ) ) ;
#1259 = PLANE ( 'NONE',  #495 ) ;
#1260 = CARTESIAN_POINT ( 'NONE',  ( 0.0000000000000000000, 0.0000000000000000000, -1.491291035056853300 ) ) ;
#1261 = CARTESIAN_POINT ( 'NONE',  ( 4.286263797015736000E-018, 0.03500000000000000300, -1.491291035056853300 ) ) ;
#1262 = DIRECTION ( 'NONE',  ( 0.0000000000000000000, 0.0000000000000000000, 1.000000000000000000 ) ) ;
#1263 = ADVANCED_FACE ( 'NONE', ( #926 ), #1196, .T. ) ;
#1264 = ADVANCED_FACE ( 'NONE', ( #920 ), #928, .T. ) ;
#1265 = ADVANCED_FACE ( 'NONE', ( #930 ), #1187, .F. ) ;
#1266 = ADVANCED_FACE ( 'NONE', ( #931 ), #1182, .F. ) ;
#1267 = ADVANCED_FACE ( 'NONE', ( #925 ), #932, .F. ) ;
#1268 = ADVANCED_FACE ( 'NONE', ( #922 ), #934, .F. ) ;
#1269 = ADVANCED_FACE ( 'NONE', ( #924 ), #1173, .T. ) ;
#1270 = ADVANCED_FACE ( 'NONE', ( #927 ), #937, .F. ) ;
#1271 = ADVANCED_FACE ( 'NONE', ( #935 ), #939, .T. ) ;
#1272 = ADVANCED_FACE ( 'NONE', ( #929 ), #941, .F. ) ;
#1273 = ADVANCED_FACE ( 'NONE', ( #933 ), #1259, .T. ) ;
#1274 = ADVANCED_FACE ( 'NONE', ( #938 ), #944, .F. ) ;
#1275 = ADVANCED_FACE ( 'NONE', ( #942 ), #1252, .T. ) ;
#1276 = ADVANCED_FACE ( 'NONE', ( #940 ), #947, .T. ) ;
#1277 = ADVANCED_FACE ( 'NONE', ( #945 ), #1245, .T. ) ;
#1278 = ADVANCED_FACE ( 'NONE', ( #943 ), #1240, .T. ) ;
#1279 = ADVANCED_FACE ( 'NONE', ( #936 ), #951, .F. ) ;
#1280 = ADVANCED_FACE ( 'NONE', ( #949 ), #1234, .T. ) ;
#1281 = ADVANCED_FACE ( 'NONE', ( #946 ), #1159, .T. ) ;
#1282 = ADVANCED_FACE ( 'NONE', ( #948 ), #1230, .T. ) ;
#1283 = ADVANCED_FACE ( 'NONE', ( #952 ), #1226, .T. ) ;
#1284 = ADVANCED_FACE ( 'NONE', ( #953 ), #1222, .T. ) ;
#1285 = ADVANCED_FACE ( 'NONE', ( #954 ), #958, .T. ) ;
#1286 = ADVANCED_FACE ( 'NONE', ( #956 ), #960, .T. ) ;
#1287 = ADVANCED_FACE ( 'NONE', ( #955 ), #962, .T. ) ;
#1288 = ADVANCED_FACE ( 'NONE', ( #950 ), #964, .T. ) ;
#1289 = ADVANCED_FACE ( 'NONE', ( #957 ), #1039, .T. ) ;
#1290 = ADVANCED_FACE ( 'NONE', ( #961 ), #1103, .T. ) ;
#1291 = ADVANCED_FACE ( 'NONE', ( #959 ), #1084, .T. ) ;
#1292 = ADVANCED_FACE ( 'NONE', ( #965 ), #1072, .T. ) ;
#1293 = ADVANCED_FACE ( 'NONE', ( #966 ), #1051, .T. ) ;
#1294 = ADVANCED_FACE ( 'NONE', ( #967 ), #1043, .F. ) ;
#1295 = ADVANCED_FACE ( 'NONE', ( #968 ), #1101, .T. ) ;
#1296 = ADVANCED_FACE ( 'NONE', ( #969 ), #1097, .T. ) ;
#1297 = ADVANCED_FACE ( 'NONE', ( #970 ), #974, .T. ) ;
#1298 = ADVANCED_FACE ( 'NONE', ( #972 ), #1088, .T. ) ;
#1299 = DIMENSIONAL_EXPONENTS ( 1.000000000000000000, 0.0000000000000000000, 0.0000000000000000000, 0.0000000000000000000, 0.0000000000000000000, 0.0000000000000000000, 0.0000000000000000000 ) ;
#1300 = ORIENTED_EDGE ( 'NONE', *, *, #427, .F. ) ;
#1301 = ORIENTED_EDGE ( 'NONE', *, *, #417, .T. ) ;
#1302 = ORIENTED_EDGE ( 'NONE', *, *, #418, .F. ) ;
#1303 = ORIENTED_EDGE ( 'NONE', *, *, #416, .F. ) ;
#1304 = ORIENTED_EDGE ( 'NONE', *, *, #419, .T. ) ;
#1305 = ORIENTED_EDGE ( 'NONE', *, *, #414, .F. ) ;
#1306 = ORIENTED_EDGE ( 'NONE', *, *, #417, .F. ) ;
#1307 = EDGE_CURVE ( 'NONE', #582, #585, #971, .T. ) ;
#1308 = EDGE_CURVE ( 'NONE', #602, #591, #973, .T. ) ;
ENDSEC;
END-ISO-10303-21;
